
(footprint SOP65P640X120-8N (layer F.Cu) (tedit 64034943)
  (descr "")
  (attr smd)
  (fp_text reference REF** (at -0.635 -2.327 0) (layer F.SilkS)
    (effects (font (size 1.0 1.0) (thickness 0.15)))
  )
  (fp_text value SOP65P640X120-8N (at 6.35 2.327 0) (layer F.Fab)
    (effects (font (size 1.0 1.0) (thickness 0.15)))
  )
  (pad 1 smd roundrect (roundrect_rratio 0.05) (at -2.88 -0.975) (size 1.56 0.4) (layers F.Cu F.Mask F.Paste))
  (pad 2 smd roundrect (roundrect_rratio 0.05) (at -2.88 -0.325) (size 1.56 0.4) (layers F.Cu F.Mask F.Paste))
  (pad 3 smd roundrect (roundrect_rratio 0.05) (at -2.88 0.325) (size 1.56 0.4) (layers F.Cu F.Mask F.Paste))
  (pad 4 smd roundrect (roundrect_rratio 0.05) (at -2.88 0.975) (size 1.56 0.4) (layers F.Cu F.Mask F.Paste))
  (pad 5 smd roundrect (roundrect_rratio 0.05) (at 2.88 0.975) (size 1.56 0.4) (layers F.Cu F.Mask F.Paste))
  (pad 6 smd roundrect (roundrect_rratio 0.05) (at 2.88 0.325) (size 1.56 0.4) (layers F.Cu F.Mask F.Paste))
  (pad 7 smd roundrect (roundrect_rratio 0.05) (at 2.88 -0.325) (size 1.56 0.4) (layers F.Cu F.Mask F.Paste))
  (pad 8 smd roundrect (roundrect_rratio 0.05) (at 2.88 -0.975) (size 1.56 0.4) (layers F.Cu F.Mask F.Paste))
  (fp_circle (center -4.44 -1.375) (end -4.34 -1.375) (layer F.SilkS) (width 0.2))
  (fp_circle (center -4.44 -1.375) (end -4.34 -1.375) (layer F.Fab) (width 0.2))
  (fp_line (start -2.25 -1.515) (end 2.25 -1.515) (layer F.Fab) (width 0.127))
  (fp_line (start -2.25 1.515) (end 2.25 1.515) (layer F.Fab) (width 0.127))
  (fp_line (start -2.25 -1.515) (end 2.25 -1.515) (layer F.SilkS) (width 0.127))
  (fp_line (start -2.25 1.515) (end 2.25 1.515) (layer F.SilkS) (width 0.127))
  (fp_line (start -2.25 -1.515) (end -2.25 1.515) (layer F.Fab) (width 0.127))
  (fp_line (start 2.25 -1.515) (end 2.25 1.515) (layer F.Fab) (width 0.127))
  (fp_line (start -3.91 -1.765) (end 3.91 -1.765) (layer F.CrtYd) (width 0.05))
  (fp_line (start -3.91 1.765) (end 3.91 1.765) (layer F.CrtYd) (width 0.05))
  (fp_line (start -3.91 -1.765) (end -3.91 1.765) (layer F.CrtYd) (width 0.05))
  (fp_line (start 3.91 -1.765) (end 3.91 1.765) (layer F.CrtYd) (width 0.05))
)