(kicad_sch (version 20230121) (generator eeschema)

  (uuid feeeb8a6-ceec-4bf4-8911-c3ef47fca6cd)

  (paper "A4")

  (title_block
    (title "Power Submodule")
    (date "2023-03-12")
    (rev "v2")
    (company "University of Cape Town")
    (comment 1 "           Thatohatsi Motlhamme")
    (comment 2 "           Longa Maimbo")
    (comment 3 "Authors: Nang'alelwa Sitwala")
  )

  (lib_symbols
    (symbol "0805W8F2001T5E:0805W8F2001T5E" (pin_names hide) (in_bom yes) (on_board yes)
      (property "Reference" "R" (at 0 1.27 0)
        (effects (font (size 1.27 1.27)))
      )
      (property "Value" "0805W8F2001T5E" (at 0 -2.54 0)
        (effects (font (size 1.27 1.27)))
      )
      (property "Footprint" "footprint:R0805" (at 0 -10.16 0)
        (effects (font (size 1.27 1.27) italic) hide)
      )
      (property "Datasheet" "https://item.szlcsc.com/142685.html" (at -2.286 0.127 0)
        (effects (font (size 1.27 1.27)) (justify left) hide)
      )
      (property "LCSC" "C17604" (at 0 0 0)
        (effects (font (size 1.27 1.27)) hide)
      )
      (property "Resistance" "2kΩ" (at 0 0 0)
        (effects (font (size 1.27 1.27)) hide)
      )
      (property "ki_keywords" "C17604" (at 0 0 0)
        (effects (font (size 1.27 1.27)) hide)
      )
      (symbol "0805W8F2001T5E_0_1"
        (rectangle (start -2.54 1.016) (end 2.54 -1.016)
          (stroke (width 0) (type default))
          (fill (type background))
        )
        (pin input line (at -5.08 0 0) (length 2.54)
          (name "1" (effects (font (size 1 1))))
          (number "1" (effects (font (size 1 1))))
        )
        (pin input line (at 5.08 0 180) (length 2.54)
          (name "2" (effects (font (size 1 1))))
          (number "2" (effects (font (size 1 1))))
        )
      )
    )
    (symbol "0805W8F4700T5E:0805W8F4700T5E" (pin_names hide) (in_bom yes) (on_board yes)
      (property "Reference" "R" (at 0 1.27 0)
        (effects (font (size 1.27 1.27)))
      )
      (property "Value" "0805W8F4700T5E" (at 0 -2.54 0)
        (effects (font (size 1.27 1.27)))
      )
      (property "Footprint" "footprint:R0805" (at 0 -10.16 0)
        (effects (font (size 1.27 1.27) italic) hide)
      )
      (property "Datasheet" "https://item.szlcsc.com/142685.html" (at -2.286 0.127 0)
        (effects (font (size 1.27 1.27)) (justify left) hide)
      )
      (property "LCSC" "C17710" (at 0 0 0)
        (effects (font (size 1.27 1.27)) hide)
      )
      (property "Resistance" "470Ω" (at 0 0 0)
        (effects (font (size 1.27 1.27)) hide)
      )
      (property "ki_keywords" "C17710" (at 0 0 0)
        (effects (font (size 1.27 1.27)) hide)
      )
      (symbol "0805W8F4700T5E_0_1"
        (rectangle (start -2.54 1.016) (end 2.54 -1.016)
          (stroke (width 0) (type default))
          (fill (type background))
        )
        (pin input line (at -5.08 0 0) (length 2.54)
          (name "1" (effects (font (size 1 1))))
          (number "1" (effects (font (size 1 1))))
        )
        (pin input line (at 5.08 0 180) (length 2.54)
          (name "2" (effects (font (size 1 1))))
          (number "2" (effects (font (size 1 1))))
        )
      )
    )
    (symbol "AO3401A:AO3401A" (pin_names (offset 1.016)) (in_bom yes) (on_board yes)
      (property "Reference" "T" (at -11.43 -1.27 0)
        (effects (font (size 1.27 1.27)) (justify left bottom))
      )
      (property "Value" "AO3401A" (at -11.43 -3.81 0)
        (effects (font (size 1.27 1.27)) (justify left bottom))
      )
      (property "Footprint" "SOT23-3L" (at 11.43 1.27 0)
        (effects (font (size 1.27 1.27)) (justify bottom) hide)
      )
      (property "Datasheet" "" (at 0 0 0)
        (effects (font (size 1.27 1.27)) hide)
      )
      (property "LCSC_PART" "C15127" (at -3.81 6.35 0)
        (effects (font (size 1.27 1.27)) (justify bottom) hide)
      )
      (symbol "AO3401A_0_0"
        (polyline
          (pts
            (xy 0 -2.54)
            (xy 0 2.54)
          )
          (stroke (width 0.254) (type default))
          (fill (type none))
        )
        (polyline
          (pts
            (xy 0.762 -3.175)
            (xy 0.762 -2.54)
          )
          (stroke (width 0.254) (type default))
          (fill (type none))
        )
        (polyline
          (pts
            (xy 0.762 -2.54)
            (xy 0.762 -1.905)
          )
          (stroke (width 0.254) (type default))
          (fill (type none))
        )
        (polyline
          (pts
            (xy 0.762 -2.54)
            (xy 3.81 -2.54)
          )
          (stroke (width 0.1524) (type default))
          (fill (type none))
        )
        (polyline
          (pts
            (xy 0.762 -0.762)
            (xy 0.762 0)
          )
          (stroke (width 0.254) (type default))
          (fill (type none))
        )
        (polyline
          (pts
            (xy 0.762 0)
            (xy 0.762 0.762)
          )
          (stroke (width 0.254) (type default))
          (fill (type none))
        )
        (polyline
          (pts
            (xy 0.762 0)
            (xy 2.54 0)
          )
          (stroke (width 0.1524) (type default))
          (fill (type none))
        )
        (polyline
          (pts
            (xy 0.762 1.905)
            (xy 0.762 2.54)
          )
          (stroke (width 0.254) (type default))
          (fill (type none))
        )
        (polyline
          (pts
            (xy 0.762 2.54)
            (xy 0.762 3.175)
          )
          (stroke (width 0.254) (type default))
          (fill (type none))
        )
        (polyline
          (pts
            (xy 2.54 0)
            (xy 2.54 2.54)
          )
          (stroke (width 0.1524) (type default))
          (fill (type none))
        )
        (polyline
          (pts
            (xy 2.54 2.54)
            (xy 0.762 2.54)
          )
          (stroke (width 0.1524) (type default))
          (fill (type none))
        )
        (polyline
          (pts
            (xy 2.54 2.54)
            (xy 3.81 2.54)
          )
          (stroke (width 0.1524) (type default))
          (fill (type none))
        )
        (polyline
          (pts
            (xy 3.048 0.762)
            (xy 3.302 0.508)
          )
          (stroke (width 0.1524) (type default))
          (fill (type none))
        )
        (polyline
          (pts
            (xy 3.302 0.508)
            (xy 3.81 0.508)
          )
          (stroke (width 0.1524) (type default))
          (fill (type none))
        )
        (polyline
          (pts
            (xy 3.81 -2.54)
            (xy 3.81 0.508)
          )
          (stroke (width 0.1524) (type default))
          (fill (type none))
        )
        (polyline
          (pts
            (xy 3.81 0.508)
            (xy 3.81 2.54)
          )
          (stroke (width 0.1524) (type default))
          (fill (type none))
        )
        (polyline
          (pts
            (xy 3.81 0.508)
            (xy 4.318 0.508)
          )
          (stroke (width 0.1524) (type default))
          (fill (type none))
        )
        (polyline
          (pts
            (xy 4.318 0.508)
            (xy 4.572 0.254)
          )
          (stroke (width 0.1524) (type default))
          (fill (type none))
        )
        (polyline
          (pts
            (xy 2.54 0)
            (xy 1.524 0.762)
            (xy 1.524 -0.762)
            (xy 2.54 0)
          )
          (stroke (width 0.1524) (type default))
          (fill (type outline))
        )
        (polyline
          (pts
            (xy 3.81 0.508)
            (xy 4.318 -0.254)
            (xy 3.302 -0.254)
            (xy 3.81 0.508)
          )
          (stroke (width 0.1524) (type default))
          (fill (type outline))
        )
        (circle (center 2.54 -2.54) (radius 0.3592)
          (stroke (width 0) (type default))
          (fill (type none))
        )
        (circle (center 2.54 2.54) (radius 0.3592)
          (stroke (width 0) (type default))
          (fill (type none))
        )
        (pin passive line (at -2.54 2.54 0) (length 2.54)
          (name "~" (effects (font (size 1.016 1.016))))
          (number "1" (effects (font (size 1.016 1.016))))
        )
        (pin passive line (at 2.54 5.08 270) (length 2.54)
          (name "~" (effects (font (size 1.016 1.016))))
          (number "2" (effects (font (size 1.016 1.016))))
        )
        (pin passive line (at 2.54 -5.08 90) (length 2.54)
          (name "~" (effects (font (size 1.016 1.016))))
          (number "3" (effects (font (size 1.016 1.016))))
        )
      )
    )
    (symbol "BH-18650-B1BA002:BH-18650-B1BA002" (pin_names hide) (in_bom yes) (on_board yes)
      (property "Reference" "U" (at 0 1.27 0)
        (effects (font (size 1.27 1.27)))
      )
      (property "Value" "BH-18650-B1BA002" (at 0 -2.54 0)
        (effects (font (size 1.27 1.27)))
      )
      (property "Footprint" "footprint:BATTERY-SMD_18650-1S-L77.1-W20.7-1" (at 0 -10.16 0)
        (effects (font (size 1.27 1.27) italic) hide)
      )
      (property "Datasheet" "https://atta.szlcsc.com/upload/public/pdf/source/20220402/870DB99AB50CA0DF8D51CF7C86A51FAB.pdf" (at -2.286 0.127 0)
        (effects (font (size 1.27 1.27)) (justify left) hide)
      )
      (property "LCSC" "C2988620" (at 0 0 0)
        (effects (font (size 1.27 1.27)) hide)
      )
      (property "ki_keywords" "C2988620" (at 0 0 0)
        (effects (font (size 1.27 1.27)) hide)
      )
      (symbol "BH-18650-B1BA002_0_1"
        (polyline
          (pts
            (xy -1.27 2.286)
            (xy -1.27 -1.778)
          )
          (stroke (width 0) (type default))
          (fill (type none))
        )
        (polyline
          (pts
            (xy -0.508 1.27)
            (xy -0.508 -1.016)
          )
          (stroke (width 0) (type default))
          (fill (type none))
        )
        (polyline
          (pts
            (xy 0.254 2.286)
            (xy 0.254 -1.778)
          )
          (stroke (width 0) (type default))
          (fill (type none))
        )
        (polyline
          (pts
            (xy 1.016 1.27)
            (xy 1.016 -1.016)
          )
          (stroke (width 0) (type default))
          (fill (type none))
        )
        (pin input line (at 5.08 0 180) (length 3.81)
          (name "1" (effects (font (size 1 1))))
          (number "1" (effects (font (size 1 1))))
        )
        (pin input line (at -5.08 0 0) (length 3.81)
          (name "2" (effects (font (size 1 1))))
          (number "2" (effects (font (size 1 1))))
        )
      )
    )
    (symbol "CL21A476MQYNNNE:CL21A476MQYNNNE" (pin_names hide) (in_bom yes) (on_board yes)
      (property "Reference" "C" (at 0 1.27 0)
        (effects (font (size 1.27 1.27)))
      )
      (property "Value" "CL21A476MQYNNNE" (at 0 -2.54 0)
        (effects (font (size 1.27 1.27)))
      )
      (property "Footprint" "footprint:C0805" (at 0 -10.16 0)
        (effects (font (size 1.27 1.27) italic) hide)
      )
      (property "Datasheet" "https://item.szlcsc.com/373011.html" (at -2.286 0.127 0)
        (effects (font (size 1.27 1.27)) (justify left) hide)
      )
      (property "LCSC" "C16780" (at 0 0 0)
        (effects (font (size 1.27 1.27)) hide)
      )
      (property "Capacitance" "47uF" (at 0 0 0)
        (effects (font (size 1.27 1.27)) hide)
      )
      (property "ki_keywords" "C16780" (at 0 0 0)
        (effects (font (size 1.27 1.27)) hide)
      )
      (symbol "CL21A476MQYNNNE_0_1"
        (polyline
          (pts
            (xy -1.27 0)
            (xy -0.508 0)
          )
          (stroke (width 0) (type default))
          (fill (type none))
        )
        (polyline
          (pts
            (xy -0.508 2.032)
            (xy -0.508 -2.032)
          )
          (stroke (width 0) (type default))
          (fill (type none))
        )
        (polyline
          (pts
            (xy 0.508 0)
            (xy 1.27 0)
          )
          (stroke (width 0) (type default))
          (fill (type none))
        )
        (polyline
          (pts
            (xy 0.508 2.032)
            (xy 0.508 -2.032)
          )
          (stroke (width 0) (type default))
          (fill (type none))
        )
        (pin input line (at -3.81 0 0) (length 2.54)
          (name "1" (effects (font (size 1 1))))
          (number "1" (effects (font (size 1 1))))
        )
        (pin input line (at 3.81 0 180) (length 2.54)
          (name "2" (effects (font (size 1 1))))
          (number "2" (effects (font (size 1 1))))
        )
      )
    )
    (symbol "Connector:TestPoint" (pin_numbers hide) (pin_names (offset 0.762) hide) (in_bom yes) (on_board yes)
      (property "Reference" "TP" (at 0 6.858 0)
        (effects (font (size 1.27 1.27)))
      )
      (property "Value" "TestPoint" (at 0 5.08 0)
        (effects (font (size 1.27 1.27)))
      )
      (property "Footprint" "" (at 5.08 0 0)
        (effects (font (size 1.27 1.27)) hide)
      )
      (property "Datasheet" "~" (at 5.08 0 0)
        (effects (font (size 1.27 1.27)) hide)
      )
      (property "ki_keywords" "test point tp" (at 0 0 0)
        (effects (font (size 1.27 1.27)) hide)
      )
      (property "ki_description" "test point" (at 0 0 0)
        (effects (font (size 1.27 1.27)) hide)
      )
      (property "ki_fp_filters" "Pin* Test*" (at 0 0 0)
        (effects (font (size 1.27 1.27)) hide)
      )
      (symbol "TestPoint_0_1"
        (circle (center 0 3.302) (radius 0.762)
          (stroke (width 0) (type default))
          (fill (type none))
        )
      )
      (symbol "TestPoint_1_1"
        (pin passive line (at 0 0 90) (length 2.54)
          (name "1" (effects (font (size 1.27 1.27))))
          (number "1" (effects (font (size 1.27 1.27))))
        )
      )
    )
    (symbol "Device:C" (pin_numbers hide) (pin_names (offset 0.254)) (in_bom yes) (on_board yes)
      (property "Reference" "C" (at 0.635 2.54 0)
        (effects (font (size 1.27 1.27)) (justify left))
      )
      (property "Value" "C" (at 0.635 -2.54 0)
        (effects (font (size 1.27 1.27)) (justify left))
      )
      (property "Footprint" "" (at 0.9652 -3.81 0)
        (effects (font (size 1.27 1.27)) hide)
      )
      (property "Datasheet" "~" (at 0 0 0)
        (effects (font (size 1.27 1.27)) hide)
      )
      (property "ki_keywords" "cap capacitor" (at 0 0 0)
        (effects (font (size 1.27 1.27)) hide)
      )
      (property "ki_description" "Unpolarized capacitor" (at 0 0 0)
        (effects (font (size 1.27 1.27)) hide)
      )
      (property "ki_fp_filters" "C_*" (at 0 0 0)
        (effects (font (size 1.27 1.27)) hide)
      )
      (symbol "C_0_1"
        (polyline
          (pts
            (xy -2.032 -0.762)
            (xy 2.032 -0.762)
          )
          (stroke (width 0.508) (type default))
          (fill (type none))
        )
        (polyline
          (pts
            (xy -2.032 0.762)
            (xy 2.032 0.762)
          )
          (stroke (width 0.508) (type default))
          (fill (type none))
        )
      )
      (symbol "C_1_1"
        (pin passive line (at 0 3.81 270) (length 2.794)
          (name "~" (effects (font (size 1.27 1.27))))
          (number "1" (effects (font (size 1.27 1.27))))
        )
        (pin passive line (at 0 -3.81 90) (length 2.794)
          (name "~" (effects (font (size 1.27 1.27))))
          (number "2" (effects (font (size 1.27 1.27))))
        )
      )
    )
    (symbol "Device:LED" (pin_numbers hide) (pin_names (offset 1.016) hide) (in_bom yes) (on_board yes)
      (property "Reference" "D" (at 0 2.54 0)
        (effects (font (size 1.27 1.27)))
      )
      (property "Value" "LED" (at 0 -2.54 0)
        (effects (font (size 1.27 1.27)))
      )
      (property "Footprint" "" (at 0 0 0)
        (effects (font (size 1.27 1.27)) hide)
      )
      (property "Datasheet" "~" (at 0 0 0)
        (effects (font (size 1.27 1.27)) hide)
      )
      (property "ki_keywords" "LED diode" (at 0 0 0)
        (effects (font (size 1.27 1.27)) hide)
      )
      (property "ki_description" "Light emitting diode" (at 0 0 0)
        (effects (font (size 1.27 1.27)) hide)
      )
      (property "ki_fp_filters" "LED* LED_SMD:* LED_THT:*" (at 0 0 0)
        (effects (font (size 1.27 1.27)) hide)
      )
      (symbol "LED_0_1"
        (polyline
          (pts
            (xy -1.27 -1.27)
            (xy -1.27 1.27)
          )
          (stroke (width 0.254) (type default))
          (fill (type none))
        )
        (polyline
          (pts
            (xy -1.27 0)
            (xy 1.27 0)
          )
          (stroke (width 0) (type default))
          (fill (type none))
        )
        (polyline
          (pts
            (xy 1.27 -1.27)
            (xy 1.27 1.27)
            (xy -1.27 0)
            (xy 1.27 -1.27)
          )
          (stroke (width 0.254) (type default))
          (fill (type none))
        )
        (polyline
          (pts
            (xy -3.048 -0.762)
            (xy -4.572 -2.286)
            (xy -3.81 -2.286)
            (xy -4.572 -2.286)
            (xy -4.572 -1.524)
          )
          (stroke (width 0) (type default))
          (fill (type none))
        )
        (polyline
          (pts
            (xy -1.778 -0.762)
            (xy -3.302 -2.286)
            (xy -2.54 -2.286)
            (xy -3.302 -2.286)
            (xy -3.302 -1.524)
          )
          (stroke (width 0) (type default))
          (fill (type none))
        )
      )
      (symbol "LED_1_1"
        (pin passive line (at -3.81 0 0) (length 2.54)
          (name "K" (effects (font (size 1.27 1.27))))
          (number "1" (effects (font (size 1.27 1.27))))
        )
        (pin passive line (at 3.81 0 180) (length 2.54)
          (name "A" (effects (font (size 1.27 1.27))))
          (number "2" (effects (font (size 1.27 1.27))))
        )
      )
    )
    (symbol "Device:R_Small" (pin_numbers hide) (pin_names (offset 0.254) hide) (in_bom yes) (on_board yes)
      (property "Reference" "R" (at 0.762 0.508 0)
        (effects (font (size 1.27 1.27)) (justify left))
      )
      (property "Value" "R_Small" (at 0.762 -1.016 0)
        (effects (font (size 1.27 1.27)) (justify left))
      )
      (property "Footprint" "" (at 0 0 0)
        (effects (font (size 1.27 1.27)) hide)
      )
      (property "Datasheet" "~" (at 0 0 0)
        (effects (font (size 1.27 1.27)) hide)
      )
      (property "ki_keywords" "R resistor" (at 0 0 0)
        (effects (font (size 1.27 1.27)) hide)
      )
      (property "ki_description" "Resistor, small symbol" (at 0 0 0)
        (effects (font (size 1.27 1.27)) hide)
      )
      (property "ki_fp_filters" "R_*" (at 0 0 0)
        (effects (font (size 1.27 1.27)) hide)
      )
      (symbol "R_Small_0_1"
        (rectangle (start -0.762 1.778) (end 0.762 -1.778)
          (stroke (width 0.2032) (type default))
          (fill (type none))
        )
      )
      (symbol "R_Small_1_1"
        (pin passive line (at 0 2.54 270) (length 0.762)
          (name "~" (effects (font (size 1.27 1.27))))
          (number "1" (effects (font (size 1.27 1.27))))
        )
        (pin passive line (at 0 -2.54 90) (length 0.762)
          (name "~" (effects (font (size 1.27 1.27))))
          (number "2" (effects (font (size 1.27 1.27))))
        )
      )
    )
    (symbol "HT7533-1_C14289:HT7533-1_C14289" (in_bom yes) (on_board yes)
      (property "Reference" "U" (at 0 1.27 0)
        (effects (font (size 1.27 1.27)))
      )
      (property "Value" "HT7533-1_C14289" (at 0 -2.54 0)
        (effects (font (size 1.27 1.27)))
      )
      (property "Footprint" "footprint:SOT-89-3_L4.5-W2.5-P1.50-LS4.2-BR" (at 0 -10.16 0)
        (effects (font (size 1.27 1.27) italic) hide)
      )
      (property "Datasheet" "https://item.szlcsc.com/421845.html" (at -2.286 0.127 0)
        (effects (font (size 1.27 1.27)) (justify left) hide)
      )
      (property "LCSC" "C14289" (at 0 0 0)
        (effects (font (size 1.27 1.27)) hide)
      )
      (property "ki_keywords" "C14289" (at 0 0 0)
        (effects (font (size 1.27 1.27)) hide)
      )
      (symbol "HT7533-1_C14289_0_1"
        (rectangle (start -5.08 7.62) (end 5.08 -7.62)
          (stroke (width 0) (type default))
          (fill (type background))
        )
        (pin unspecified line (at 10.16 -5.08 180) (length 5.08)
          (name "GND" (effects (font (size 1 1))))
          (number "1" (effects (font (size 1 1))))
        )
        (pin unspecified line (at -10.16 0 0) (length 5.08)
          (name "Vin" (effects (font (size 1 1))))
          (number "2" (effects (font (size 1 1))))
        )
        (pin unspecified line (at 10.16 5.08 180) (length 5.08)
          (name "Vout" (effects (font (size 1 1))))
          (number "3" (effects (font (size 1 1))))
        )
      )
    )
    (symbol "MCP73831T-2ACI_OT:MCP73831T-2ACI_OT" (in_bom yes) (on_board yes)
      (property "Reference" "U" (at 0 1.27 0)
        (effects (font (size 1.27 1.27)))
      )
      (property "Value" "MCP73831T-2ACI_OT" (at 0 -2.54 0)
        (effects (font (size 1.27 1.27)))
      )
      (property "Footprint" "footprint:SOT-23-5_L3.0-W1.7-P0.95-LS2.8-BL" (at 0 -10.16 0)
        (effects (font (size 1.27 1.27) italic) hide)
      )
      (property "Datasheet" "https://item.szlcsc.com/236104.html" (at -2.286 0.127 0)
        (effects (font (size 1.27 1.27)) (justify left) hide)
      )
      (property "LCSC" "C424093" (at 0 0 0)
        (effects (font (size 1.27 1.27)) hide)
      )
      (property "ki_keywords" "C424093" (at 0 0 0)
        (effects (font (size 1.27 1.27)) hide)
      )
      (symbol "MCP73831T-2ACI_OT_0_1"
        (rectangle (start -8.89 5.08) (end 8.89 -5.08)
          (stroke (width 0) (type default))
          (fill (type background))
        )
        (circle (center -7.62 3.81) (radius 0.381)
          (stroke (width 0) (type default))
          (fill (type background))
        )
        (pin unspecified line (at -11.43 2.54 0) (length 2.54)
          (name "STAT" (effects (font (size 1 1))))
          (number "1" (effects (font (size 1 1))))
        )
        (pin unspecified line (at -11.43 0 0) (length 2.54)
          (name "VSS" (effects (font (size 1 1))))
          (number "2" (effects (font (size 1 1))))
        )
        (pin unspecified line (at -11.43 -2.54 0) (length 2.54)
          (name "VBAT" (effects (font (size 1 1))))
          (number "3" (effects (font (size 1 1))))
        )
        (pin unspecified line (at 11.43 -2.54 180) (length 2.54)
          (name "VDD" (effects (font (size 1 1))))
          (number "4" (effects (font (size 1 1))))
        )
        (pin unspecified line (at 11.43 2.54 180) (length 2.54)
          (name "PROG" (effects (font (size 1 1))))
          (number "5" (effects (font (size 1 1))))
        )
      )
    )
    (symbol "MICROXNJ_1" (in_bom yes) (on_board yes)
      (property "Reference" "USB" (at 0 1.27 0)
        (effects (font (size 1.27 1.27)))
      )
      (property "Value" "MICROXNJ" (at 0 -2.54 0)
        (effects (font (size 1.27 1.27)))
      )
      (property "Footprint" "footprint:MICRO-USB-SMD_MICROXNJ" (at 0 -10.16 0)
        (effects (font (size 1.27 1.27) italic) hide)
      )
      (property "Datasheet" "https://item.szlcsc.com/392534.html" (at -2.286 0.127 0)
        (effects (font (size 1.27 1.27)) (justify left) hide)
      )
      (property "LCSC" "C404969" (at 0 0 0)
        (effects (font (size 1.27 1.27)) hide)
      )
      (property "ki_keywords" "C404969" (at 0 0 0)
        (effects (font (size 1.27 1.27)) hide)
      )
      (symbol "MICROXNJ_1_0_1"
        (rectangle (start -5.08 7.62) (end 7.62 -7.62)
          (stroke (width 0) (type default))
          (fill (type background))
        )
        (pin unspecified line (at -10.16 -5.08 0) (length 5.08)
          (name "VBUS" (effects (font (size 1 1))))
          (number "1" (effects (font (size 1 1))))
        )
        (pin unspecified line (at -10.16 -2.54 0) (length 5.08)
          (name "D-" (effects (font (size 1 1))))
          (number "2" (effects (font (size 1 1))))
        )
        (pin unspecified line (at -10.16 0 0) (length 5.08)
          (name "D+" (effects (font (size 1 1))))
          (number "3" (effects (font (size 1 1))))
        )
        (pin unspecified line (at -10.16 2.54 0) (length 5.08)
          (name "ID" (effects (font (size 1 1))))
          (number "4" (effects (font (size 1 1))))
        )
        (pin unspecified line (at -10.16 5.08 0) (length 5.08)
          (name "GND" (effects (font (size 1 1))))
          (number "5" (effects (font (size 1 1))))
        )
        (pin unspecified line (at 2.54 12.7 270) (length 5.08)
          (name "SH1" (effects (font (size 1 1))))
          (number "6" (effects (font (size 1 1))))
        )
        (pin unspecified line (at 5.08 12.7 270) (length 5.08)
          (name "SH2" (effects (font (size 1 1))))
          (number "7" (effects (font (size 1 1))))
        )
        (pin unspecified line (at 5.08 -12.7 90) (length 5.08)
          (name "SH3" (effects (font (size 1 1))))
          (number "8" (effects (font (size 1 1))))
        )
        (pin unspecified line (at 2.54 -12.7 90) (length 5.08)
          (name "SH4" (effects (font (size 1 1))))
          (number "9" (effects (font (size 1 1))))
        )
      )
    )
    (symbol "SS54:SS54_C22452" (pin_names hide) (in_bom yes) (on_board yes)
      (property "Reference" "U" (at 0 1.27 0)
        (effects (font (size 1.27 1.27)))
      )
      (property "Value" "SS54_C22452" (at 0 -2.54 0)
        (effects (font (size 1.27 1.27)))
      )
      (property "Footprint" "footprint:SMA_L4.4-W2.8-LS5.4-R-RD" (at 0 -10.16 0)
        (effects (font (size 1.27 1.27) italic) hide)
      )
      (property "Datasheet" "https://item.szlcsc.com/310096.html" (at -2.286 0.127 0)
        (effects (font (size 1.27 1.27)) (justify left) hide)
      )
      (property "LCSC" "C22452" (at 0 0 0)
        (effects (font (size 1.27 1.27)) hide)
      )
      (property "ki_keywords" "C22452" (at 0 0 0)
        (effects (font (size 1.27 1.27)) hide)
      )
      (symbol "SS54_C22452_0_1"
        (polyline
          (pts
            (xy 1.27 1.524)
            (xy -1.27 0)
            (xy 1.27 -1.778)
            (xy 1.27 1.524)
          )
          (stroke (width 0) (type default))
          (fill (type background))
        )
        (polyline
          (pts
            (xy -2.032 1.524)
            (xy -2.032 1.778)
            (xy -1.524 1.778)
            (xy -1.524 -2.032)
            (xy -1.016 -2.032)
            (xy -1.016 -1.778)
          )
          (stroke (width 0) (type default))
          (fill (type none))
        )
        (pin unspecified line (at 5.08 0 180) (length 3.81)
          (name "A" (effects (font (size 1 1))))
          (number "1" (effects (font (size 1 1))))
        )
        (pin unspecified line (at -5.08 0 0) (length 3.81)
          (name "K" (effects (font (size 1 1))))
          (number "2" (effects (font (size 1 1))))
        )
      )
    )
    (symbol "power:GND" (power) (pin_names (offset 0)) (in_bom yes) (on_board yes)
      (property "Reference" "#PWR" (at 0 -6.35 0)
        (effects (font (size 1.27 1.27)) hide)
      )
      (property "Value" "GND" (at 0 -3.81 0)
        (effects (font (size 1.27 1.27)))
      )
      (property "Footprint" "" (at 0 0 0)
        (effects (font (size 1.27 1.27)) hide)
      )
      (property "Datasheet" "" (at 0 0 0)
        (effects (font (size 1.27 1.27)) hide)
      )
      (property "ki_keywords" "global power" (at 0 0 0)
        (effects (font (size 1.27 1.27)) hide)
      )
      (property "ki_description" "Power symbol creates a global label with name \"GND\" , ground" (at 0 0 0)
        (effects (font (size 1.27 1.27)) hide)
      )
      (symbol "GND_0_1"
        (polyline
          (pts
            (xy 0 0)
            (xy 0 -1.27)
            (xy 1.27 -1.27)
            (xy 0 -2.54)
            (xy -1.27 -1.27)
            (xy 0 -1.27)
          )
          (stroke (width 0) (type default))
          (fill (type none))
        )
      )
      (symbol "GND_1_1"
        (pin power_in line (at 0 0 270) (length 0) hide
          (name "GND" (effects (font (size 1.27 1.27))))
          (number "1" (effects (font (size 1.27 1.27))))
        )
      )
    )
    (symbol "power:PWR_FLAG" (power) (pin_numbers hide) (pin_names (offset 0) hide) (in_bom yes) (on_board yes)
      (property "Reference" "#FLG" (at 0 1.905 0)
        (effects (font (size 1.27 1.27)) hide)
      )
      (property "Value" "PWR_FLAG" (at 0 3.81 0)
        (effects (font (size 1.27 1.27)))
      )
      (property "Footprint" "" (at 0 0 0)
        (effects (font (size 1.27 1.27)) hide)
      )
      (property "Datasheet" "~" (at 0 0 0)
        (effects (font (size 1.27 1.27)) hide)
      )
      (property "ki_keywords" "flag power" (at 0 0 0)
        (effects (font (size 1.27 1.27)) hide)
      )
      (property "ki_description" "Special symbol for telling ERC where power comes from" (at 0 0 0)
        (effects (font (size 1.27 1.27)) hide)
      )
      (symbol "PWR_FLAG_0_0"
        (pin power_out line (at 0 0 90) (length 0)
          (name "pwr" (effects (font (size 1.27 1.27))))
          (number "1" (effects (font (size 1.27 1.27))))
        )
      )
      (symbol "PWR_FLAG_0_1"
        (polyline
          (pts
            (xy 0 0)
            (xy 0 1.27)
            (xy -1.016 1.905)
            (xy 0 2.54)
            (xy 1.016 1.905)
            (xy 0 1.27)
          )
          (stroke (width 0) (type default))
          (fill (type none))
        )
      )
    )
  )

  (junction (at 29.21 57.15) (diameter 0) (color 0 0 0 0)
    (uuid 159e4e84-05b5-4556-829e-e060bb34d02b)
  )
  (junction (at 147.32 33.02) (diameter 0) (color 0 0 0 0)
    (uuid 21756091-692e-4d9f-b2ab-9bdc33107af7)
  )
  (junction (at 45.72 114.3) (diameter 0) (color 0 0 0 0)
    (uuid 25575ef8-4517-4792-916e-c3d706d310fa)
  )
  (junction (at 29.21 26.67) (diameter 0) (color 0 0 0 0)
    (uuid 28aa20df-f61f-4dc9-a019-0556061cd2aa)
  )
  (junction (at 257.81 62.23) (diameter 0) (color 0 0 0 0)
    (uuid 2e4c655e-189f-46d4-b6a4-4011b3d370e2)
  )
  (junction (at 167.005 125.73) (diameter 0) (color 0 0 0 0)
    (uuid 33f7a9de-d8ce-4c3d-aef9-4a555a95ef53)
  )
  (junction (at 44.45 38.1) (diameter 0) (color 0 0 0 0)
    (uuid 3f3987bb-8d4a-453e-a9bd-128957ef2e21)
  )
  (junction (at 130.175 130.81) (diameter 0) (color 0 0 0 0)
    (uuid 512a8813-f141-4d07-bc8d-454788ab2103)
  )
  (junction (at 96.52 33.02) (diameter 0) (color 0 0 0 0)
    (uuid 51a77ac0-40c2-467d-97ec-f2b446f57a66)
  )
  (junction (at 200.66 62.23) (diameter 0) (color 0 0 0 0)
    (uuid 6e523996-9972-4339-8795-cef281b22647)
  )
  (junction (at 82.55 132.08) (diameter 0) (color 0 0 0 0)
    (uuid 78efcfe0-9c66-494a-be23-31955ea65e9a)
  )
  (junction (at 67.31 132.08) (diameter 0) (color 0 0 0 0)
    (uuid 9e0e4275-2e59-472a-b2bb-9c79d84617b2)
  )
  (junction (at 46.99 48.26) (diameter 0) (color 0 0 0 0)
    (uuid b8c4bc8a-785a-41df-a660-4818b77510f7)
  )
  (junction (at 182.88 125.73) (diameter 0) (color 0 0 0 0)
    (uuid d064db94-72bd-4d8d-850a-b28c8b2de723)
  )
  (junction (at 64.77 38.1) (diameter 0) (color 0 0 0 0)
    (uuid d28b074d-7740-472a-827f-db869d4d377a)
  )
  (junction (at 96.52 67.31) (diameter 0) (color 0 0 0 0)
    (uuid ddc84f6d-e698-42e0-a4d2-fcc44ba2b7ce)
  )
  (junction (at 96.52 39.37) (diameter 0) (color 0 0 0 0)
    (uuid e9c359e3-24c3-4603-ae23-9cd92366c496)
  )
  (junction (at 210.82 59.69) (diameter 0) (color 0 0 0 0)
    (uuid edf792fa-f86d-437c-adcb-c54c4a808431)
  )
  (junction (at 255.27 62.23) (diameter 0) (color 0 0 0 0)
    (uuid f98144ac-e56f-4307-930b-8bbad0e1792c)
  )
  (junction (at 96.52 62.23) (diameter 0) (color 0 0 0 0)
    (uuid ff5b3501-3800-4e81-8020-6bbfc6c4339b)
  )

  (wire (pts (xy 167.005 125.73) (xy 172.085 125.73))
    (stroke (width 0) (type default))
    (uuid 0463bb40-c689-4d17-bc9e-edb877e53751)
  )
  (wire (pts (xy 29.21 26.67) (xy 30.48 26.67))
    (stroke (width 0) (type default))
    (uuid 0bb0a049-c691-4b78-8988-979ecb0473dc)
  )
  (wire (pts (xy 45.72 114.3) (xy 45.72 127))
    (stroke (width 0) (type default))
    (uuid 10347559-0d17-48d0-822c-eaaec93eb82c)
  )
  (wire (pts (xy 245.11 57.15) (xy 238.76 57.15))
    (stroke (width 0) (type default))
    (uuid 166ecff5-4796-4714-afc8-0bb601b7f134)
  )
  (wire (pts (xy 120.015 130.81) (xy 130.175 130.81))
    (stroke (width 0) (type default))
    (uuid 1c756026-02d3-49cb-b8ac-017990c471be)
  )
  (wire (pts (xy 215.9 59.69) (xy 210.82 59.69))
    (stroke (width 0) (type default))
    (uuid 1d3e297b-cf9f-4b63-91cc-c71f397f9494)
  )
  (wire (pts (xy 44.45 38.1) (xy 50.8 38.1))
    (stroke (width 0) (type default))
    (uuid 1ff438ca-b442-40cd-90fe-d39844bc2289)
  )
  (wire (pts (xy 167.005 125.73) (xy 167.005 129.54))
    (stroke (width 0) (type default))
    (uuid 2487bc0c-de55-4475-bf63-846ac98e43ff)
  )
  (wire (pts (xy 30.48 26.67) (xy 30.48 30.48))
    (stroke (width 0) (type default))
    (uuid 25d85536-e4c4-4fe8-9ceb-a25aa80e137f)
  )
  (wire (pts (xy 96.52 33.02) (xy 111.76 33.02))
    (stroke (width 0) (type default))
    (uuid 273d9342-8fcb-4f5f-a5bf-852d64b39747)
  )
  (wire (pts (xy 130.175 130.81) (xy 133.985 130.81))
    (stroke (width 0) (type default))
    (uuid 29d0a190-5713-4c2a-9122-fcc845fe1be5)
  )
  (wire (pts (xy 147.32 33.02) (xy 147.32 38.1))
    (stroke (width 0) (type default))
    (uuid 372e60e9-f242-4f2b-9cd0-cd9c292efbad)
  )
  (wire (pts (xy 130.175 138.43) (xy 130.175 142.24))
    (stroke (width 0) (type default))
    (uuid 373402ab-2aa8-43c5-8bc5-9c7e646e7c51)
  )
  (wire (pts (xy 29.21 57.15) (xy 30.48 57.15))
    (stroke (width 0) (type default))
    (uuid 384a09b0-4f7e-4808-a428-3d7034d594d7)
  )
  (wire (pts (xy 245.11 38.1) (xy 255.27 38.1))
    (stroke (width 0) (type default))
    (uuid 38e46d67-c6e2-4fda-904f-8b874bac21b5)
  )
  (wire (pts (xy 53.34 132.08) (xy 67.31 132.08))
    (stroke (width 0) (type default))
    (uuid 3a4fe354-2d4c-4e6f-a17c-621a40dd156d)
  )
  (wire (pts (xy 215.9 38.1) (xy 234.95 38.1))
    (stroke (width 0) (type default))
    (uuid 3c8c472d-7b83-4626-937a-0a6674a6a0f0)
  )
  (wire (pts (xy 46.99 45.72) (xy 46.99 48.26))
    (stroke (width 0) (type default))
    (uuid 3f067a3a-4781-49d7-82c6-505e5a1ba52b)
  )
  (wire (pts (xy 27.94 57.15) (xy 29.21 57.15))
    (stroke (width 0) (type default))
    (uuid 4339611c-aada-480b-ad14-392c795a899e)
  )
  (wire (pts (xy 257.81 69.85) (xy 257.81 72.39))
    (stroke (width 0) (type default))
    (uuid 436888f8-89ba-4378-8586-71e30b365971)
  )
  (wire (pts (xy 96.52 67.31) (xy 96.52 71.12))
    (stroke (width 0) (type default))
    (uuid 43694b21-2f36-4131-aaec-e35a1457dd4f)
  )
  (wire (pts (xy 255.27 57.15) (xy 255.27 62.23))
    (stroke (width 0) (type default))
    (uuid 4578e7f2-5894-4bb3-a8cc-b978e394fefa)
  )
  (wire (pts (xy 96.52 62.23) (xy 96.52 67.31))
    (stroke (width 0) (type default))
    (uuid 463eaba7-8c99-4835-96b3-989f93749f40)
  )
  (wire (pts (xy 167.005 137.16) (xy 167.005 143.51))
    (stroke (width 0) (type default))
    (uuid 4a897d4a-756f-412f-a35a-ed87d8303632)
  )
  (wire (pts (xy 182.88 115.57) (xy 182.88 125.73))
    (stroke (width 0) (type default))
    (uuid 4ebe4857-31ff-4ac9-81b3-45f77b1c60d2)
  )
  (wire (pts (xy 64.77 34.29) (xy 64.77 38.1))
    (stroke (width 0) (type default))
    (uuid 504204cc-68d2-4c62-92bb-111ca59a1b42)
  )
  (wire (pts (xy 233.68 44.45) (xy 245.11 44.45))
    (stroke (width 0) (type default))
    (uuid 5185a9d0-a7f0-4114-8bf7-80bb7c4cc6a7)
  )
  (wire (pts (xy 27.94 30.48) (xy 27.94 26.67))
    (stroke (width 0) (type default))
    (uuid 54d0526e-71f0-4a45-9dc4-09f2b225dc9a)
  )
  (wire (pts (xy 40.64 114.3) (xy 45.72 114.3))
    (stroke (width 0) (type default))
    (uuid 5583f44a-99b4-4150-ab3d-6571f98c4111)
  )
  (wire (pts (xy 27.94 26.67) (xy 29.21 26.67))
    (stroke (width 0) (type default))
    (uuid 588cd313-f834-4858-a689-73da04e63056)
  )
  (wire (pts (xy 96.52 55.88) (xy 96.52 62.23))
    (stroke (width 0) (type default))
    (uuid 592c9a18-00ef-4144-80d7-7076f672169a)
  )
  (wire (pts (xy 46.99 48.26) (xy 46.99 60.96))
    (stroke (width 0) (type default))
    (uuid 5976b9e5-a375-491c-83b2-55d259be50a8)
  )
  (wire (pts (xy 255.27 38.1) (xy 255.27 49.53))
    (stroke (width 0) (type default))
    (uuid 5e3162e6-2ae1-417b-9355-e71a0170ad65)
  )
  (wire (pts (xy 257.81 62.23) (xy 255.27 62.23))
    (stroke (width 0) (type default))
    (uuid 646b1e38-b88e-48c0-88f4-218df40f5e1c)
  )
  (wire (pts (xy 96.52 39.37) (xy 96.52 45.72))
    (stroke (width 0) (type default))
    (uuid 67d5ee88-599d-441d-8a0f-ca7c98d761d4)
  )
  (wire (pts (xy 200.66 62.23) (xy 215.9 62.23))
    (stroke (width 0) (type default))
    (uuid 6aeb2c7e-2f75-4823-a2de-2a97683fc3bd)
  )
  (wire (pts (xy 96.52 62.23) (xy 101.6 62.23))
    (stroke (width 0) (type default))
    (uuid 6b8e7f5a-6d81-4252-a726-9869aec323aa)
  )
  (wire (pts (xy 44.45 29.21) (xy 44.45 38.1))
    (stroke (width 0) (type default))
    (uuid 73007fdf-1adf-4079-9ffc-f087860a92b9)
  )
  (wire (pts (xy 135.89 67.31) (xy 96.52 67.31))
    (stroke (width 0) (type default))
    (uuid 743d6b4b-4bcc-45fd-8bbb-ed3d1a1555c5)
  )
  (wire (pts (xy 82.55 123.19) (xy 82.55 132.08))
    (stroke (width 0) (type default))
    (uuid 776920ba-674a-47cb-967b-64d3975ac7d4)
  )
  (wire (pts (xy 67.31 127) (xy 67.31 132.08))
    (stroke (width 0) (type default))
    (uuid 78828a3c-ac75-4568-803e-4b7970c5a21b)
  )
  (wire (pts (xy 64.77 38.1) (xy 68.58 38.1))
    (stroke (width 0) (type default))
    (uuid 7924aab1-b271-4e40-93e3-fbf36b26009c)
  )
  (wire (pts (xy 154.305 125.73) (xy 167.005 125.73))
    (stroke (width 0) (type default))
    (uuid 7c6a0798-9425-4d82-a307-490063a4c418)
  )
  (wire (pts (xy 257.81 62.23) (xy 275.59 62.23))
    (stroke (width 0) (type default))
    (uuid 7cf0055a-9353-4908-a519-4d32cbdea6fb)
  )
  (wire (pts (xy 138.43 33.02) (xy 147.32 33.02))
    (stroke (width 0) (type default))
    (uuid 80f77b7e-07c2-4b69-88ff-3803e69c3c36)
  )
  (wire (pts (xy 67.31 132.08) (xy 72.39 132.08))
    (stroke (width 0) (type default))
    (uuid 812acc06-8190-4f83-ab2d-9ceb1f366f9e)
  )
  (wire (pts (xy 116.84 33.02) (xy 128.27 33.02))
    (stroke (width 0) (type default))
    (uuid 852de0c5-76da-4608-b78b-f3ac40e3c39b)
  )
  (wire (pts (xy 30.48 57.15) (xy 30.48 55.88))
    (stroke (width 0) (type default))
    (uuid 88d0a8bc-0292-45a0-bc3f-c565642b8e5f)
  )
  (wire (pts (xy 67.31 114.3) (xy 67.31 116.84))
    (stroke (width 0) (type default))
    (uuid 8d9a8c74-0053-434b-989e-69710239a1bb)
  )
  (wire (pts (xy 87.63 33.02) (xy 96.52 33.02))
    (stroke (width 0) (type default))
    (uuid a1854e1c-a6bb-43fe-9a0c-4f4341a7c373)
  )
  (wire (pts (xy 245.11 44.45) (xy 245.11 57.15))
    (stroke (width 0) (type default))
    (uuid a196a166-43fe-471f-a9e6-5227819d6110)
  )
  (wire (pts (xy 182.88 125.73) (xy 187.96 125.73))
    (stroke (width 0) (type default))
    (uuid ab846d33-38d3-4eff-87bb-61009b466607)
  )
  (wire (pts (xy 177.165 125.73) (xy 182.88 125.73))
    (stroke (width 0) (type default))
    (uuid b137c31a-c237-4efc-a0e0-c8ca290d48a4)
  )
  (wire (pts (xy 45.72 114.3) (xy 67.31 114.3))
    (stroke (width 0) (type default))
    (uuid bc45ec91-4b3c-42d1-998b-1b48d6828a0a)
  )
  (wire (pts (xy 247.65 62.23) (xy 255.27 62.23))
    (stroke (width 0) (type default))
    (uuid bfb4198d-6271-462d-858d-35d3b1221c0d)
  )
  (wire (pts (xy 77.47 132.08) (xy 82.55 132.08))
    (stroke (width 0) (type default))
    (uuid c3849a7a-9a5e-4046-a1ff-3c5292d76ede)
  )
  (wire (pts (xy 210.82 44.45) (xy 210.82 59.69))
    (stroke (width 0) (type default))
    (uuid c3990bc6-48ac-4446-b3fb-d71e6947ec65)
  )
  (wire (pts (xy 43.18 45.72) (xy 46.99 45.72))
    (stroke (width 0) (type default))
    (uuid c6b86937-9381-42a5-91a4-e40771896fd9)
  )
  (wire (pts (xy 43.18 43.18) (xy 55.88 43.18))
    (stroke (width 0) (type default))
    (uuid cb52f33e-0234-4a7b-96ba-b61cfd8e4719)
  )
  (wire (pts (xy 238.76 62.23) (xy 242.57 62.23))
    (stroke (width 0) (type default))
    (uuid ccb18e09-332e-4ff1-a4ff-29b17dd05a13)
  )
  (wire (pts (xy 43.18 48.26) (xy 46.99 48.26))
    (stroke (width 0) (type default))
    (uuid d0d52c40-6f35-4686-b000-cf38a63cb673)
  )
  (wire (pts (xy 19.05 26.67) (xy 19.05 36.83))
    (stroke (width 0) (type default))
    (uuid d3b582d5-9076-4923-9377-e23b04b35191)
  )
  (wire (pts (xy 193.04 62.23) (xy 200.66 62.23))
    (stroke (width 0) (type default))
    (uuid d7ae2910-9aff-4faa-9b59-9a159a3a6860)
  )
  (wire (pts (xy 135.89 38.1) (xy 135.89 67.31))
    (stroke (width 0) (type default))
    (uuid d7ebb368-d3fd-4de1-874d-2adc703784e4)
  )
  (wire (pts (xy 210.82 44.45) (xy 223.52 44.45))
    (stroke (width 0) (type default))
    (uuid d9ca83e4-636d-4837-a73c-9febdb7cf862)
  )
  (wire (pts (xy 55.88 38.1) (xy 64.77 38.1))
    (stroke (width 0) (type default))
    (uuid dbcc3fad-7f4a-4545-ae40-17e8e91c6861)
  )
  (wire (pts (xy 96.52 33.02) (xy 96.52 39.37))
    (stroke (width 0) (type default))
    (uuid dd58623c-9c4e-43ac-81a2-13dc81cbc4cd)
  )
  (wire (pts (xy 36.83 132.08) (xy 43.18 132.08))
    (stroke (width 0) (type default))
    (uuid ddfe81cb-1c66-47ae-8fc9-6c3ceb9cef43)
  )
  (wire (pts (xy 43.18 38.1) (xy 44.45 38.1))
    (stroke (width 0) (type default))
    (uuid de1c864e-962e-47d6-95b3-01821a417c16)
  )
  (wire (pts (xy 64.77 24.13) (xy 64.77 26.67))
    (stroke (width 0) (type default))
    (uuid e37fe010-c9c7-4e11-90f6-ed6d9c59cfa6)
  )
  (wire (pts (xy 45.72 127) (xy 50.8 127))
    (stroke (width 0) (type default))
    (uuid e4098eea-2767-4ed9-93b8-05513b31360f)
  )
  (wire (pts (xy 82.55 132.08) (xy 88.9 132.08))
    (stroke (width 0) (type default))
    (uuid e421b6aa-1206-4fdb-8482-ebf46bd66bc0)
  )
  (wire (pts (xy 215.9 57.15) (xy 215.9 38.1))
    (stroke (width 0) (type default))
    (uuid f11e8126-37fa-4ed1-a422-2de92c221029)
  )
  (wire (pts (xy 27.94 55.88) (xy 27.94 57.15))
    (stroke (width 0) (type default))
    (uuid f13c9a8e-ba02-4478-9a67-00d1e16a5e64)
  )
  (wire (pts (xy 154.305 135.89) (xy 154.305 140.97))
    (stroke (width 0) (type default))
    (uuid f37156c2-cc18-433f-9786-e907e7553676)
  )
  (wire (pts (xy 96.52 39.37) (xy 101.6 39.37))
    (stroke (width 0) (type default))
    (uuid f57fffaa-1075-47cb-a64a-06cb4fd4f5e1)
  )
  (wire (pts (xy 43.18 40.64) (xy 55.88 40.64))
    (stroke (width 0) (type default))
    (uuid f999cf65-0ffa-468f-9469-a11d2f251198)
  )
  (wire (pts (xy 147.32 33.02) (xy 160.02 33.02))
    (stroke (width 0) (type default))
    (uuid fcba7a5a-4cb9-4da8-86ab-b57251d0a15d)
  )
  (wire (pts (xy 200.66 69.85) (xy 200.66 72.39))
    (stroke (width 0) (type default))
    (uuid ff094713-fd64-4bc8-be3b-fef641e5a910)
  )

  (rectangle (start 114.935 100.33) (end 196.215 151.13)
    (stroke (width 0) (type default))
    (fill (type none))
    (uuid 20ee4aa7-3ee3-4cab-a9ac-d059f8bbd056)
  )
  (rectangle (start 13.97 13.97) (end 72.39 67.31)
    (stroke (width 0) (type default))
    (fill (type none))
    (uuid 215d8f60-96da-4bb8-91bc-ecd99a0f9329)
  )
  (rectangle (start 76.2 13.97) (end 182.88 80.01)
    (stroke (width 0) (type default))
    (fill (type none))
    (uuid 7b7448af-7efc-461d-a35c-90dbc306a4b9)
  )
  (rectangle (start 189.23 13.97) (end 280.67 86.36)
    (stroke (width 0) (type default))
    (fill (type none))
    (uuid f11c880e-3deb-4622-bafd-9bedd61daff6)
  )
  (rectangle (start 16.51 100.33) (end 105.41 142.24)
    (stroke (width 0) (type default))
    (fill (type none))
    (uuid fe0cfa37-fd3b-44d1-9701-10470c8cf1ed)
  )

  (text "Li-ion Battery Charger" (at 205.74 17.78 0)
    (effects (font (size 2 2)) (justify left bottom))
    (uuid 11355b0a-fe17-4cbe-a070-dfe2d1dfa8e4)
  )
  (text "NOTE: The MCP73831 provides undervoltage protection, Charging, and Leakage Protection "
    (at 182.88 88.9 0)
    (effects (font (size 1.5 1.5)) (justify left bottom))
    (uuid 13d84ed3-3f9f-48c6-a25a-e0e06b23e2e7)
  )
  (text "5V Battery (Do Not Populate) with Reverse Polarity Protection"
    (at 78.74 17.78 0)
    (effects (font (size 2 2)) (justify left bottom))
    (uuid 6153b93a-18af-496b-b06d-568c548db69b)
  )
  (text "Voltage Regulator" (at 126.365 104.14 0)
    (effects (font (size 2 2)) (justify left bottom))
    (uuid 7700e550-ff35-4ebf-819f-caae2b9918eb)
  )
  (text "Power Switching between Battery and USB/Power Supply"
    (at 17.78 104.14 0)
    (effects (font (size 2 2)) (justify left bottom) (href "#1"))
    (uuid 969cedb1-b916-48d3-bf6f-aa9d64dd2dd5)
  )
  (text "Voltage Supply Lines" (at 17.78 19.05 0)
    (effects (font (size 2 2)) (justify left bottom))
    (uuid f067d91e-f609-434c-af47-b2b1ace446ce)
  )

  (label "Vin" (at 120.015 130.81 180) (fields_autoplaced)
    (effects (font (size 1.27 1.27)) (justify right bottom))
    (uuid 397152e1-4fed-4e2c-9016-454519007d93)
  )
  (label "Vin" (at 88.9 132.08 0) (fields_autoplaced)
    (effects (font (size 1.27 1.27)) (justify left bottom))
    (uuid 458790f4-db0a-4578-bcd2-18d348b923f6)
  )
  (label "Power Switch in" (at 36.83 132.08 180) (fields_autoplaced)
    (effects (font (size 1.27 1.27)) (justify right bottom))
    (uuid 66a87515-ad10-4caf-a92f-6e58f51f9212)
  )
  (label "B+" (at 87.63 33.02 0) (fields_autoplaced)
    (effects (font (size 1.27 1.27)) (justify left bottom))
    (uuid 6b44299e-4293-4c9b-a551-35bdfa7aa886)
  )
  (label "Power Switch in" (at 160.02 33.02 0) (fields_autoplaced)
    (effects (font (size 1.27 1.27)) (justify left bottom))
    (uuid 6e465971-6b83-435b-aacb-db956008afb9)
  )
  (label "B+" (at 193.04 62.23 180) (fields_autoplaced)
    (effects (font (size 1.27 1.27)) (justify right bottom))
    (uuid 751b9e3b-888d-49d4-8662-a8fca685139b)
  )

  (hierarchical_label "3V3" (shape output) (at 187.96 125.73 0) (fields_autoplaced)
    (effects (font (size 1.27 1.27)) (justify left))
    (uuid 44090bf1-e52b-48c6-8d52-868974b7780b)
  )
  (hierarchical_label "D+" (shape output) (at 55.88 43.18 0) (fields_autoplaced)
    (effects (font (size 1.27 1.27)) (justify left))
    (uuid 5886b171-a017-4000-9833-8d3d47889625)
  )
  (hierarchical_label "5V" (shape output) (at 19.05 36.83 270) (fields_autoplaced)
    (effects (font (size 1.27 1.27)) (justify right))
    (uuid 7c0d7585-1e2f-4634-8a96-0e519c9cae89)
  )
  (hierarchical_label "5V" (shape output) (at 275.59 62.23 0) (fields_autoplaced)
    (effects (font (size 1.27 1.27)) (justify left))
    (uuid 7d164eb0-6523-4b19-8451-364b78873835)
  )
  (hierarchical_label "D-" (shape output) (at 55.88 40.64 0) (fields_autoplaced)
    (effects (font (size 1.27 1.27)) (justify left))
    (uuid 7d5d6252-400b-4ffd-b545-5a775f5ca74f)
  )
  (hierarchical_label "5V" (shape input) (at 40.64 114.3 180) (fields_autoplaced)
    (effects (font (size 1.27 1.27)) (justify right))
    (uuid d573df44-1b21-4a19-9674-1c33b87b091e)
  )
  (hierarchical_label "5V" (shape output) (at 68.58 38.1 0) (fields_autoplaced)
    (effects (font (size 1.27 1.27)) (justify left))
    (uuid dec29b4e-bd2b-44b6-bd23-5e1338b45749)
  )
  (hierarchical_label "Battery" (shape output) (at 99.06 33.02 90) (fields_autoplaced)
    (effects (font (size 1.27 1.27)) (justify left))
    (uuid edb57b07-ce9e-4e2a-a542-c5d86ca4f885)
  )

  (symbol (lib_id "Connector:TestPoint") (at 147.32 38.1 0) (mirror x) (unit 1)
    (in_bom yes) (on_board yes) (dnp no)
    (uuid 0224c5f5-c44c-4911-a224-0dc4d7f1dd97)
    (property "Reference" "TP2" (at 147.9637 42.799 0)
      (effects (font (size 1.27 1.27)) (justify left))
    )
    (property "Value" "RPC" (at 152.4 45.72 0)
      (effects (font (size 1.27 1.27)) (justify left))
    )
    (property "Footprint" "TestPoint:TestPoint_THTPad_2.5x2.5mm_Drill1.2mm" (at 152.4 38.1 0)
      (effects (font (size 1.27 1.27)) hide)
    )
    (property "Datasheet" "~" (at 152.4 38.1 0)
      (effects (font (size 1.27 1.27)) hide)
    )
    (property "Extended" "" (at 147.32 38.1 0)
      (effects (font (size 1.27 1.27)) hide)
    )
    (property "LCSC" "" (at 147.32 38.1 0)
      (effects (font (size 1.27 1.27)) hide)
    )
    (property "Populated" "" (at 147.32 38.1 0)
      (effects (font (size 1.27 1.27)) hide)
    )
    (property "Price" "" (at 147.32 38.1 0)
      (effects (font (size 1.27 1.27)) hide)
    )
    (property "Min Quant" "" (at 147.32 38.1 0)
      (effects (font (size 1.27 1.27)) hide)
    )
    (property "MANUFACTURER" "NA" (at 147.32 38.1 0)
      (effects (font (size 1.27 1.27)) hide)
    )
    (pin "1" (uuid 62556a84-05ff-49ca-adc0-f66ac02d9a0f))
    (instances
      (project "Schematic"
        (path "/06fb00fa-6bee-4f0e-b548-74eddd961a20/dd4b035d-f427-49e8-8b59-c8b8ed413838"
          (reference "TP2") (unit 1)
        )
      )
      (project "Power_Revision"
        (path "/a3c40c93-26b5-4a3c-b351-7dc3412d52b5"
          (reference "TP6") (unit 1)
        )
      )
      (project "power (10)"
        (path "/a83009aa-1cd9-47cc-9ca6-727598bb2af9"
          (reference "TP2") (unit 1)
        )
      )
      (project "Power_Submodule"
        (path "/feeeb8a6-ceec-4bf4-8911-c3ef47fca6cd"
          (reference "R_Polarity1") (unit 1)
        )
      )
    )
  )

  (symbol (lib_id "Device:R_Small") (at 174.625 125.73 90) (unit 1)
    (in_bom yes) (on_board yes) (dnp no) (fields_autoplaced)
    (uuid 02322eb7-9efe-44cb-9a72-375fbfe62052)
    (property "Reference" "R?" (at 174.625 121.9835 90)
      (effects (font (size 1.27 1.27)))
    )
    (property "Value" "0R" (at 174.625 123.9045 90)
      (effects (font (size 1.27 1.27)))
    )
    (property "Footprint" "footprint:0805W8F0000T5E" (at 174.625 125.73 0)
      (effects (font (size 1.27 1.27)) hide)
    )
    (property "Datasheet" "~" (at 174.625 125.73 0)
      (effects (font (size 1.27 1.27)) hide)
    )
    (property "LCSC" "C17477" (at 174.625 125.73 90)
      (effects (font (size 1.27 1.27)) hide)
    )
    (property "Resistance" "0Ω" (at 174.625 125.73 90)
      (effects (font (size 1.27 1.27)) hide)
    )
    (pin "1" (uuid f8724a32-80f8-40d3-98a0-41ec4b1569b6))
    (pin "2" (uuid 7469943c-954b-489b-a6a2-571a1ec8b8bf))
    (instances
      (project "Power submodule"
        (path "/6fc317aa-5f90-47b1-bdc0-610a1a985ddf"
          (reference "R?") (unit 1)
        )
      )
      (project "Full_Schematic"
        (path "/fc608198-e48a-4546-be1f-43c463c6be2c/39a4cd7e-f9f0-444e-885c-1ef0e01b006c"
          (reference "R9") (unit 1)
        )
      )
      (project "Power_Submodule"
        (path "/feeeb8a6-ceec-4bf4-8911-c3ef47fca6cd"
          (reference "R9") (unit 1)
        )
      )
    )
  )

  (symbol (lib_id "HT7533-1_C14289:HT7533-1_C14289") (at 144.145 130.81 0) (unit 1)
    (in_bom yes) (on_board yes) (dnp no) (fields_autoplaced)
    (uuid 0834a84c-47b8-4372-8233-acef9b444a42)
    (property "Reference" "U6" (at 144.145 120.3071 0)
      (effects (font (size 1.27 1.27)))
    )
    (property "Value" "HT7533-1_C14289" (at 144.145 122.2281 0)
      (effects (font (size 1.27 1.27)))
    )
    (property "Footprint" "footprint:SOT-89-3_L4.5-W2.5-P1.50-LS4.2-BR" (at 144.145 140.97 0)
      (effects (font (size 1.27 1.27) italic) hide)
    )
    (property "Datasheet" "https://item.szlcsc.com/421845.html" (at 141.859 130.683 0)
      (effects (font (size 1.27 1.27)) (justify left) hide)
    )
    (property "LCSC" "C14289" (at 144.145 130.81 0)
      (effects (font (size 1.27 1.27)) hide)
    )
    (pin "1" (uuid eec2482e-82a6-4f9f-a522-2a3f4426bdb4))
    (pin "2" (uuid 8d0aa232-68ab-4334-929e-a20fa4d877e2))
    (pin "3" (uuid 22768308-e3cd-4f82-bee9-5956564f1b77))
    (instances
      (project "Power_Submodule"
        (path "/feeeb8a6-ceec-4bf4-8911-c3ef47fca6cd"
          (reference "U6") (unit 1)
        )
      )
    )
  )

  (symbol (lib_id "power:GND") (at 64.77 24.13 180) (unit 1)
    (in_bom yes) (on_board yes) (dnp no) (fields_autoplaced)
    (uuid 09676184-b699-4021-a4a9-1d824a075f1e)
    (property "Reference" "#PWR04" (at 64.77 17.78 0)
      (effects (font (size 1.27 1.27)) hide)
    )
    (property "Value" "GND" (at 64.77 20.6281 0)
      (effects (font (size 1.27 1.27)))
    )
    (property "Footprint" "" (at 64.77 24.13 0)
      (effects (font (size 1.27 1.27)) hide)
    )
    (property "Datasheet" "" (at 64.77 24.13 0)
      (effects (font (size 1.27 1.27)) hide)
    )
    (pin "1" (uuid 2908c9d0-016e-4226-91a7-c361d07de49d))
    (instances
      (project "Full_Schematic"
        (path "/fc608198-e48a-4546-be1f-43c463c6be2c/39a4cd7e-f9f0-444e-885c-1ef0e01b006c"
          (reference "#PWR04") (unit 1)
        )
      )
      (project "Power_Submodule"
        (path "/feeeb8a6-ceec-4bf4-8911-c3ef47fca6cd"
          (reference "#PWR04") (unit 1)
        )
      )
    )
  )

  (symbol (lib_id "power:PWR_FLAG") (at 19.05 26.67 0) (unit 1)
    (in_bom yes) (on_board yes) (dnp no) (fields_autoplaced)
    (uuid 160fd14c-1792-4d32-bc9d-49e327ea914e)
    (property "Reference" "#FLG01" (at 19.05 24.765 0)
      (effects (font (size 1.27 1.27)) hide)
    )
    (property "Value" "PWR_FLAG" (at 19.05 23.1681 0)
      (effects (font (size 1.27 1.27)))
    )
    (property "Footprint" "" (at 19.05 26.67 0)
      (effects (font (size 1.27 1.27)) hide)
    )
    (property "Datasheet" "~" (at 19.05 26.67 0)
      (effects (font (size 1.27 1.27)) hide)
    )
    (pin "1" (uuid b971ec3a-48b7-4b0a-97c4-f0d01e820221))
    (instances
      (project "Full_Schematic"
        (path "/fc608198-e48a-4546-be1f-43c463c6be2c/39a4cd7e-f9f0-444e-885c-1ef0e01b006c"
          (reference "#FLG01") (unit 1)
        )
      )
      (project "Power_Submodule"
        (path "/feeeb8a6-ceec-4bf4-8911-c3ef47fca6cd"
          (reference "#FLG01") (unit 1)
        )
      )
    )
  )

  (symbol (lib_id "Device:R_Small") (at 114.3 33.02 90) (unit 1)
    (in_bom yes) (on_board yes) (dnp no) (fields_autoplaced)
    (uuid 2552b57e-5284-4c32-b814-3f5afb523e84)
    (property "Reference" "R?" (at 114.3 29.2735 90)
      (effects (font (size 1.27 1.27)))
    )
    (property "Value" "0R" (at 114.3 31.1945 90)
      (effects (font (size 1.27 1.27)))
    )
    (property "Footprint" "footprint:0805W8F0000T5E" (at 114.3 33.02 0)
      (effects (font (size 1.27 1.27)) hide)
    )
    (property "Datasheet" "~" (at 114.3 33.02 0)
      (effects (font (size 1.27 1.27)) hide)
    )
    (property "LCSC" "C17477" (at 114.3 33.02 90)
      (effects (font (size 1.27 1.27)) hide)
    )
    (property "Resistance " "0Ω" (at 114.3 33.02 90)
      (effects (font (size 1.27 1.27)) hide)
    )
    (pin "1" (uuid 47ddeba7-18b1-4373-9873-5a8d97214bd5))
    (pin "2" (uuid e85f5fef-bdba-4005-9a18-cbeebb65b58e))
    (instances
      (project "Power submodule"
        (path "/6fc317aa-5f90-47b1-bdc0-610a1a985ddf"
          (reference "R?") (unit 1)
        )
      )
      (project "Full_Schematic"
        (path "/fc608198-e48a-4546-be1f-43c463c6be2c/39a4cd7e-f9f0-444e-885c-1ef0e01b006c"
          (reference "R9") (unit 1)
        )
      )
      (project "Power_Submodule"
        (path "/feeeb8a6-ceec-4bf4-8911-c3ef47fca6cd"
          (reference "R3") (unit 1)
        )
      )
    )
  )

  (symbol (lib_id "Device:C") (at 130.175 134.62 0) (unit 1)
    (in_bom yes) (on_board yes) (dnp no)
    (uuid 46cf4dd5-16d1-41a2-a2d1-5071d765e444)
    (property "Reference" "C?" (at 133.096 133.9763 0)
      (effects (font (size 1.27 1.27)) (justify left))
    )
    (property "Value" "10u" (at 133.096 135.8973 0)
      (effects (font (size 1.27 1.27)) (justify left))
    )
    (property "Footprint" "footprint:C0805" (at 131.1402 138.43 0)
      (effects (font (size 1.27 1.27)) hide)
    )
    (property "Datasheet" "~" (at 130.175 134.62 0)
      (effects (font (size 1.27 1.27)) hide)
    )
    (property "LCSC" "C15850" (at 130.175 134.62 0)
      (effects (font (size 1.27 1.27)) hide)
    )
    (property "Capacitance " "10u" (at 130.175 134.62 0)
      (effects (font (size 1.27 1.27)) hide)
    )
    (pin "1" (uuid 7ec74793-1613-4430-b3fd-a46d60b245da))
    (pin "2" (uuid 2c632449-1aa8-45bd-a44b-e86f80140277))
    (instances
      (project "Power submodule"
        (path "/6fc317aa-5f90-47b1-bdc0-610a1a985ddf"
          (reference "C?") (unit 1)
        )
      )
      (project "Full_Schematic"
        (path "/fc608198-e48a-4546-be1f-43c463c6be2c/39a4cd7e-f9f0-444e-885c-1ef0e01b006c"
          (reference "C6") (unit 1)
        )
      )
      (project "Power_Submodule"
        (path "/feeeb8a6-ceec-4bf4-8911-c3ef47fca6cd"
          (reference "C9") (unit 1)
        )
      )
    )
  )

  (symbol (lib_id "Connector:TestPoint") (at 101.6 39.37 270) (mirror x) (unit 1)
    (in_bom yes) (on_board yes) (dnp no)
    (uuid 4c89b662-843a-4901-bd24-051bc5c7d687)
    (property "Reference" "TP2" (at 106.299 38.7263 90)
      (effects (font (size 1.27 1.27)) (justify left))
    )
    (property "Value" "B+" (at 106.299 40.6473 90)
      (effects (font (size 1.27 1.27)) (justify left))
    )
    (property "Footprint" "TestPoint:TestPoint_THTPad_2.5x2.5mm_Drill1.2mm" (at 101.6 34.29 0)
      (effects (font (size 1.27 1.27)) hide)
    )
    (property "Datasheet" "~" (at 101.6 34.29 0)
      (effects (font (size 1.27 1.27)) hide)
    )
    (property "Extended" "" (at 101.6 39.37 0)
      (effects (font (size 1.27 1.27)) hide)
    )
    (property "LCSC" "" (at 101.6 39.37 0)
      (effects (font (size 1.27 1.27)) hide)
    )
    (property "Populated" "" (at 101.6 39.37 0)
      (effects (font (size 1.27 1.27)) hide)
    )
    (property "Price" "" (at 101.6 39.37 0)
      (effects (font (size 1.27 1.27)) hide)
    )
    (property "Min Quant" "" (at 101.6 39.37 0)
      (effects (font (size 1.27 1.27)) hide)
    )
    (property "MANUFACTURER" "NA" (at 101.6 39.37 0)
      (effects (font (size 1.27 1.27)) hide)
    )
    (pin "1" (uuid e39828ba-a98e-4c8e-9650-158ca4958c4f))
    (instances
      (project "Schematic"
        (path "/06fb00fa-6bee-4f0e-b548-74eddd961a20/dd4b035d-f427-49e8-8b59-c8b8ed413838"
          (reference "TP2") (unit 1)
        )
      )
      (project "Power_Revision"
        (path "/a3c40c93-26b5-4a3c-b351-7dc3412d52b5"
          (reference "TP6") (unit 1)
        )
      )
      (project "power (10)"
        (path "/a83009aa-1cd9-47cc-9ca6-727598bb2af9"
          (reference "TP2") (unit 1)
        )
      )
      (project "Power_Submodule"
        (path "/feeeb8a6-ceec-4bf4-8911-c3ef47fca6cd"
          (reference "Battery+1") (unit 1)
        )
      )
    )
  )

  (symbol (lib_id "CL21A476MQYNNNE:CL21A476MQYNNNE") (at 200.66 66.04 270) (unit 1)
    (in_bom yes) (on_board yes) (dnp no) (fields_autoplaced)
    (uuid 5c86bb24-b937-4187-936a-5b239c55098a)
    (property "Reference" "C7" (at 203.327 65.3963 90)
      (effects (font (size 1.27 1.27)) (justify left))
    )
    (property "Value" "CL21A476MQYNNNE" (at 203.327 67.3173 90)
      (effects (font (size 1.27 1.27)) (justify left))
    )
    (property "Footprint" "footprint:C0805" (at 190.5 66.04 0)
      (effects (font (size 1.27 1.27) italic) hide)
    )
    (property "Datasheet" "https://item.szlcsc.com/373011.html" (at 200.787 63.754 0)
      (effects (font (size 1.27 1.27)) (justify left) hide)
    )
    (property "LCSC" "C16780" (at 200.66 66.04 0)
      (effects (font (size 1.27 1.27)) hide)
    )
    (property "Capacitance" "47uF" (at 200.66 66.04 0)
      (effects (font (size 1.27 1.27)) hide)
    )
    (pin "1" (uuid 9380f2f3-bd25-4c6c-b8c6-b07e02e3f983))
    (pin "2" (uuid 8deae53c-b2e3-4e5f-97ad-d6aeda8c7091))
    (instances
      (project "Power_Submodule"
        (path "/feeeb8a6-ceec-4bf4-8911-c3ef47fca6cd"
          (reference "C7") (unit 1)
        )
      )
    )
  )

  (symbol (lib_id "power:GND") (at 46.99 60.96 0) (unit 1)
    (in_bom yes) (on_board yes) (dnp no) (fields_autoplaced)
    (uuid 6a055a53-7cba-42b8-a03e-aad12523c41f)
    (property "Reference" "#PWR03" (at 46.99 67.31 0)
      (effects (font (size 1.27 1.27)) hide)
    )
    (property "Value" "GND" (at 46.99 65.0955 0)
      (effects (font (size 1.27 1.27)))
    )
    (property "Footprint" "" (at 46.99 60.96 0)
      (effects (font (size 1.27 1.27)) hide)
    )
    (property "Datasheet" "" (at 46.99 60.96 0)
      (effects (font (size 1.27 1.27)) hide)
    )
    (pin "1" (uuid 510e138d-d46f-4312-9b5d-a6b5ada5a658))
    (instances
      (project "Full_Schematic"
        (path "/fc608198-e48a-4546-be1f-43c463c6be2c/39a4cd7e-f9f0-444e-885c-1ef0e01b006c"
          (reference "#PWR03") (unit 1)
        )
      )
      (project "Power_Submodule"
        (path "/feeeb8a6-ceec-4bf4-8911-c3ef47fca6cd"
          (reference "#PWR03") (unit 1)
        )
      )
    )
  )

  (symbol (lib_id "power:GND") (at 257.81 72.39 0) (unit 1)
    (in_bom yes) (on_board yes) (dnp no) (fields_autoplaced)
    (uuid 72746761-dce4-4516-8aa0-a39a449289fc)
    (property "Reference" "#PWR014" (at 257.81 78.74 0)
      (effects (font (size 1.27 1.27)) hide)
    )
    (property "Value" "GND" (at 257.81 76.5255 0)
      (effects (font (size 1.27 1.27)))
    )
    (property "Footprint" "" (at 257.81 72.39 0)
      (effects (font (size 1.27 1.27)) hide)
    )
    (property "Datasheet" "" (at 257.81 72.39 0)
      (effects (font (size 1.27 1.27)) hide)
    )
    (pin "1" (uuid 63779a73-5d05-402a-ad03-d920f08705c7))
    (instances
      (project "Full_Schematic"
        (path "/fc608198-e48a-4546-be1f-43c463c6be2c/39a4cd7e-f9f0-444e-885c-1ef0e01b006c"
          (reference "#PWR014") (unit 1)
        )
      )
      (project "Power_Submodule"
        (path "/feeeb8a6-ceec-4bf4-8911-c3ef47fca6cd"
          (reference "#PWR015") (unit 1)
        )
      )
    )
  )

  (symbol (lib_id "power:GND") (at 200.66 72.39 0) (unit 1)
    (in_bom yes) (on_board yes) (dnp no) (fields_autoplaced)
    (uuid 7a9c2355-2f48-4b4a-8246-dda2981844de)
    (property "Reference" "#PWR014" (at 200.66 78.74 0)
      (effects (font (size 1.27 1.27)) hide)
    )
    (property "Value" "GND" (at 200.66 76.5255 0)
      (effects (font (size 1.27 1.27)))
    )
    (property "Footprint" "" (at 200.66 72.39 0)
      (effects (font (size 1.27 1.27)) hide)
    )
    (property "Datasheet" "" (at 200.66 72.39 0)
      (effects (font (size 1.27 1.27)) hide)
    )
    (pin "1" (uuid 9c0ff861-a132-49fc-b241-603bdcf19db7))
    (instances
      (project "Full_Schematic"
        (path "/fc608198-e48a-4546-be1f-43c463c6be2c/39a4cd7e-f9f0-444e-885c-1ef0e01b006c"
          (reference "#PWR014") (unit 1)
        )
      )
      (project "Power_Submodule"
        (path "/feeeb8a6-ceec-4bf4-8911-c3ef47fca6cd"
          (reference "#PWR016") (unit 1)
        )
      )
    )
  )

  (symbol (lib_id "power:GND") (at 29.21 26.67 180) (unit 1)
    (in_bom yes) (on_board yes) (dnp no) (fields_autoplaced)
    (uuid 820f7554-5b80-4dcd-9745-b66499dea020)
    (property "Reference" "#PWR01" (at 29.21 20.32 0)
      (effects (font (size 1.27 1.27)) hide)
    )
    (property "Value" "GND" (at 29.21 23.1681 0)
      (effects (font (size 1.27 1.27)))
    )
    (property "Footprint" "" (at 29.21 26.67 0)
      (effects (font (size 1.27 1.27)) hide)
    )
    (property "Datasheet" "" (at 29.21 26.67 0)
      (effects (font (size 1.27 1.27)) hide)
    )
    (pin "1" (uuid fdf5d1f3-78d6-4e97-becd-d0618da24e08))
    (instances
      (project "Full_Schematic"
        (path "/fc608198-e48a-4546-be1f-43c463c6be2c/39a4cd7e-f9f0-444e-885c-1ef0e01b006c"
          (reference "#PWR01") (unit 1)
        )
      )
      (project "Power_Submodule"
        (path "/feeeb8a6-ceec-4bf4-8911-c3ef47fca6cd"
          (reference "#PWR01") (unit 1)
        )
      )
    )
  )

  (symbol (lib_id "Device:C") (at 64.77 30.48 180) (unit 1)
    (in_bom yes) (on_board yes) (dnp no) (fields_autoplaced)
    (uuid 87c01483-1575-4baf-b297-ab671863a911)
    (property "Reference" "C?" (at 67.691 29.8363 0)
      (effects (font (size 1.27 1.27)) (justify right))
    )
    (property "Value" "100n" (at 67.691 31.7573 0)
      (effects (font (size 1.27 1.27)) (justify right))
    )
    (property "Footprint" "footprint:CL21B104KCFNNNE" (at 63.8048 26.67 0)
      (effects (font (size 1.27 1.27)) hide)
    )
    (property "Datasheet" "~" (at 64.77 30.48 0)
      (effects (font (size 1.27 1.27)) hide)
    )
    (property "LCSC" "C28233" (at 64.77 30.48 0)
      (effects (font (size 1.27 1.27)) hide)
    )
    (property "Capacitance" "100nF" (at 64.77 30.48 0)
      (effects (font (size 1.27 1.27)) hide)
    )
    (pin "1" (uuid 1527bcb1-ac7d-4cfa-8945-2e06fe6e6d19))
    (pin "2" (uuid 5dd09885-c724-4187-8543-461be935026a))
    (instances
      (project "Power submodule"
        (path "/6fc317aa-5f90-47b1-bdc0-610a1a985ddf"
          (reference "C?") (unit 1)
        )
      )
      (project "Full_Schematic"
        (path "/fc608198-e48a-4546-be1f-43c463c6be2c/39a4cd7e-f9f0-444e-885c-1ef0e01b006c"
          (reference "C1") (unit 1)
        )
      )
      (project "Power_Submodule"
        (path "/feeeb8a6-ceec-4bf4-8911-c3ef47fca6cd"
          (reference "C1") (unit 1)
        )
      )
    )
  )

  (symbol (lib_id "Connector:TestPoint") (at 101.6 62.23 270) (mirror x) (unit 1)
    (in_bom yes) (on_board yes) (dnp no)
    (uuid 895cc2f2-ef12-4e36-a6c3-894cfca785cb)
    (property "Reference" "TP2" (at 106.299 61.5863 90)
      (effects (font (size 1.27 1.27)) (justify left))
    )
    (property "Value" "B-" (at 106.299 63.5073 90)
      (effects (font (size 1.27 1.27)) (justify left))
    )
    (property "Footprint" "TestPoint:TestPoint_THTPad_2.5x2.5mm_Drill1.2mm" (at 101.6 57.15 0)
      (effects (font (size 1.27 1.27)) hide)
    )
    (property "Datasheet" "~" (at 101.6 57.15 0)
      (effects (font (size 1.27 1.27)) hide)
    )
    (property "Extended" "" (at 101.6 62.23 0)
      (effects (font (size 1.27 1.27)) hide)
    )
    (property "LCSC" "" (at 101.6 62.23 0)
      (effects (font (size 1.27 1.27)) hide)
    )
    (property "Populated" "" (at 101.6 62.23 0)
      (effects (font (size 1.27 1.27)) hide)
    )
    (property "Price" "" (at 101.6 62.23 0)
      (effects (font (size 1.27 1.27)) hide)
    )
    (property "Min Quant" "" (at 101.6 62.23 0)
      (effects (font (size 1.27 1.27)) hide)
    )
    (property "MANUFACTURER" "NA" (at 101.6 62.23 0)
      (effects (font (size 1.27 1.27)) hide)
    )
    (pin "1" (uuid 3753e04f-407d-49b3-82d7-23521033f49d))
    (instances
      (project "Schematic"
        (path "/06fb00fa-6bee-4f0e-b548-74eddd961a20/dd4b035d-f427-49e8-8b59-c8b8ed413838"
          (reference "TP2") (unit 1)
        )
      )
      (project "Power_Revision"
        (path "/a3c40c93-26b5-4a3c-b351-7dc3412d52b5"
          (reference "TP6") (unit 1)
        )
      )
      (project "power (10)"
        (path "/a83009aa-1cd9-47cc-9ca6-727598bb2af9"
          (reference "TP2") (unit 1)
        )
      )
      (project "Power_Submodule"
        (path "/feeeb8a6-ceec-4bf4-8911-c3ef47fca6cd"
          (reference "Battery-1") (unit 1)
        )
      )
    )
  )

  (symbol (lib_id "Device:R_Small") (at 53.34 38.1 90) (unit 1)
    (in_bom yes) (on_board yes) (dnp no) (fields_autoplaced)
    (uuid 8c80660e-4709-4430-9b42-6aa2ef3dc305)
    (property "Reference" "R?" (at 53.34 34.3535 90)
      (effects (font (size 1.27 1.27)))
    )
    (property "Value" "0R" (at 53.34 36.2745 90)
      (effects (font (size 1.27 1.27)))
    )
    (property "Footprint" "footprint:0805W8F0000T5E" (at 53.34 38.1 0)
      (effects (font (size 1.27 1.27)) hide)
    )
    (property "Datasheet" "~" (at 53.34 38.1 0)
      (effects (font (size 1.27 1.27)) hide)
    )
    (property "LCSC" "C17477" (at 53.34 38.1 90)
      (effects (font (size 1.27 1.27)) hide)
    )
    (property "Resistance " "0Ω" (at 53.34 38.1 90)
      (effects (font (size 1.27 1.27)) hide)
    )
    (pin "1" (uuid 8edb8dbc-2b96-41c3-8948-9e576bd4794e))
    (pin "2" (uuid 2dc46538-fccc-448b-a2d8-1f542f768b16))
    (instances
      (project "Power submodule"
        (path "/6fc317aa-5f90-47b1-bdc0-610a1a985ddf"
          (reference "R?") (unit 1)
        )
      )
      (project "Full_Schematic"
        (path "/fc608198-e48a-4546-be1f-43c463c6be2c/39a4cd7e-f9f0-444e-885c-1ef0e01b006c"
          (reference "R9") (unit 1)
        )
      )
      (project "Power_Submodule"
        (path "/feeeb8a6-ceec-4bf4-8911-c3ef47fca6cd"
          (reference "R4") (unit 1)
        )
      )
    )
  )

  (symbol (lib_id "BH-18650-B1BA002:BH-18650-B1BA002") (at 96.52 50.8 270) (unit 1)
    (in_bom no) (on_board yes) (dnp yes)
    (uuid 8e6d80ad-1f2d-4bcb-8573-c4b0a7727766)
    (property "Reference" "U4" (at 99.441 50.1563 90)
      (effects (font (size 1.27 1.27)) (justify left))
    )
    (property "Value" "BH-18650-B1BA002" (at 99.441 52.0773 90)
      (effects (font (size 1.27 1.27)) (justify left))
    )
    (property "Footprint" "footprint:BATTERY-SMD_18650-1S-L77.1-W20.7-1" (at 86.36 50.8 0)
      (effects (font (size 1.27 1.27) italic) hide)
    )
    (property "Datasheet" "https://atta.szlcsc.com/upload/public/pdf/source/20220402/870DB99AB50CA0DF8D51CF7C86A51FAB.pdf" (at 96.647 48.514 0)
      (effects (font (size 1.27 1.27)) (justify left) hide)
    )
    (property "LCSC" "C2988620" (at 96.52 50.8 0)
      (effects (font (size 1.27 1.27)) hide)
    )
    (pin "1" (uuid 95dd0243-1580-41be-bd52-49ea9b699bd7))
    (pin "2" (uuid 0b1fbd8c-e15c-4355-ad7c-d8688bbd0ddd))
    (instances
      (project "Full_Schematic"
        (path "/fc608198-e48a-4546-be1f-43c463c6be2c/39a4cd7e-f9f0-444e-885c-1ef0e01b006c"
          (reference "U4") (unit 1)
        )
      )
      (project "Power_Submodule"
        (path "/feeeb8a6-ceec-4bf4-8911-c3ef47fca6cd"
          (reference "U7") (unit 1)
        )
      )
    )
  )

  (symbol (lib_id "Connector:TestPoint") (at 44.45 29.21 0) (mirror y) (unit 1)
    (in_bom yes) (on_board yes) (dnp no)
    (uuid 9574ed0a-3c40-487a-b469-93e483d374ba)
    (property "Reference" "TP2" (at 45.847 25.2643 0)
      (effects (font (size 1.27 1.27)) (justify right))
    )
    (property "Value" "5V" (at 45.847 27.1853 0)
      (effects (font (size 1.27 1.27)) (justify right))
    )
    (property "Footprint" "TestPoint:TestPoint_THTPad_2.5x2.5mm_Drill1.2mm" (at 39.37 29.21 0)
      (effects (font (size 1.27 1.27)) hide)
    )
    (property "Datasheet" "~" (at 39.37 29.21 0)
      (effects (font (size 1.27 1.27)) hide)
    )
    (property "Extended" "" (at 44.45 29.21 0)
      (effects (font (size 1.27 1.27)) hide)
    )
    (property "LCSC" "" (at 44.45 29.21 0)
      (effects (font (size 1.27 1.27)) hide)
    )
    (property "Populated" "" (at 44.45 29.21 0)
      (effects (font (size 1.27 1.27)) hide)
    )
    (property "Price" "" (at 44.45 29.21 0)
      (effects (font (size 1.27 1.27)) hide)
    )
    (property "Min Quant" "" (at 44.45 29.21 0)
      (effects (font (size 1.27 1.27)) hide)
    )
    (property "MANUFACTURER" "NA" (at 44.45 29.21 0)
      (effects (font (size 1.27 1.27)) hide)
    )
    (pin "1" (uuid 7787c300-74c6-4017-87ce-486421a8db8b))
    (instances
      (project "Schematic"
        (path "/06fb00fa-6bee-4f0e-b548-74eddd961a20/dd4b035d-f427-49e8-8b59-c8b8ed413838"
          (reference "TP2") (unit 1)
        )
      )
      (project "Power_Revision"
        (path "/a3c40c93-26b5-4a3c-b351-7dc3412d52b5"
          (reference "TP6") (unit 1)
        )
      )
      (project "power (10)"
        (path "/a83009aa-1cd9-47cc-9ca6-727598bb2af9"
          (reference "TP2") (unit 1)
        )
      )
      (project "Power_Submodule"
        (path "/feeeb8a6-ceec-4bf4-8911-c3ef47fca6cd"
          (reference "5V_Test_Point1") (unit 1)
        )
      )
    )
  )

  (symbol (lib_id "Connector:TestPoint") (at 182.88 115.57 0) (mirror y) (unit 1)
    (in_bom yes) (on_board yes) (dnp no) (fields_autoplaced)
    (uuid 997d0618-3388-459d-9362-5707ce137b2c)
    (property "Reference" "TP2" (at 184.277 111.6243 0)
      (effects (font (size 1.27 1.27)) (justify right))
    )
    (property "Value" "3.3V " (at 184.277 113.5453 0)
      (effects (font (size 1.27 1.27)) (justify right))
    )
    (property "Footprint" "TestPoint:TestPoint_THTPad_2.5x2.5mm_Drill1.2mm" (at 177.8 115.57 0)
      (effects (font (size 1.27 1.27)) hide)
    )
    (property "Datasheet" "~" (at 177.8 115.57 0)
      (effects (font (size 1.27 1.27)) hide)
    )
    (property "Extended" "" (at 182.88 115.57 0)
      (effects (font (size 1.27 1.27)) hide)
    )
    (property "LCSC" "" (at 182.88 115.57 0)
      (effects (font (size 1.27 1.27)) hide)
    )
    (property "Populated" "" (at 182.88 115.57 0)
      (effects (font (size 1.27 1.27)) hide)
    )
    (property "Price" "" (at 182.88 115.57 0)
      (effects (font (size 1.27 1.27)) hide)
    )
    (property "Min Quant" "" (at 182.88 115.57 0)
      (effects (font (size 1.27 1.27)) hide)
    )
    (property "MANUFACTURER" "NA" (at 182.88 115.57 0)
      (effects (font (size 1.27 1.27)) hide)
    )
    (pin "1" (uuid 2e2d4531-301a-491b-b869-cdd968699a97))
    (instances
      (project "Schematic"
        (path "/06fb00fa-6bee-4f0e-b548-74eddd961a20/dd4b035d-f427-49e8-8b59-c8b8ed413838"
          (reference "TP2") (unit 1)
        )
      )
      (project "Power_Revision"
        (path "/a3c40c93-26b5-4a3c-b351-7dc3412d52b5"
          (reference "TP6") (unit 1)
        )
      )
      (project "power (10)"
        (path "/a83009aa-1cd9-47cc-9ca6-727598bb2af9"
          (reference "TP2") (unit 1)
        )
      )
      (project "Power_Submodule"
        (path "/feeeb8a6-ceec-4bf4-8911-c3ef47fca6cd"
          (reference "3V3_Test_Point1") (unit 1)
        )
      )
    )
  )

  (symbol (lib_id "Connector:TestPoint") (at 82.55 123.19 0) (mirror y) (unit 1)
    (in_bom yes) (on_board yes) (dnp no) (fields_autoplaced)
    (uuid 9a85872d-d399-4024-aa9a-71192fe9aa98)
    (property "Reference" "TP2" (at 83.947 119.2443 0)
      (effects (font (size 1.27 1.27)) (justify right))
    )
    (property "Value" "V_in" (at 83.947 121.1653 0)
      (effects (font (size 1.27 1.27)) (justify right))
    )
    (property "Footprint" "TestPoint:TestPoint_THTPad_2.5x2.5mm_Drill1.2mm" (at 77.47 123.19 0)
      (effects (font (size 1.27 1.27)) hide)
    )
    (property "Datasheet" "~" (at 77.47 123.19 0)
      (effects (font (size 1.27 1.27)) hide)
    )
    (property "Extended" "" (at 82.55 123.19 0)
      (effects (font (size 1.27 1.27)) hide)
    )
    (property "LCSC" "" (at 82.55 123.19 0)
      (effects (font (size 1.27 1.27)) hide)
    )
    (property "Populated" "" (at 82.55 123.19 0)
      (effects (font (size 1.27 1.27)) hide)
    )
    (property "Price" "" (at 82.55 123.19 0)
      (effects (font (size 1.27 1.27)) hide)
    )
    (property "Min Quant" "" (at 82.55 123.19 0)
      (effects (font (size 1.27 1.27)) hide)
    )
    (property "MANUFACTURER" "NA" (at 82.55 123.19 0)
      (effects (font (size 1.27 1.27)) hide)
    )
    (pin "1" (uuid 6de894d5-763c-4472-8844-7943fb9c1675))
    (instances
      (project "Schematic"
        (path "/06fb00fa-6bee-4f0e-b548-74eddd961a20/dd4b035d-f427-49e8-8b59-c8b8ed413838"
          (reference "TP2") (unit 1)
        )
      )
      (project "Power_Revision"
        (path "/a3c40c93-26b5-4a3c-b351-7dc3412d52b5"
          (reference "TP6") (unit 1)
        )
      )
      (project "power (10)"
        (path "/a83009aa-1cd9-47cc-9ca6-727598bb2af9"
          (reference "TP2") (unit 1)
        )
      )
      (project "Power_Submodule"
        (path "/feeeb8a6-ceec-4bf4-8911-c3ef47fca6cd"
          (reference "P_Switch1") (unit 1)
        )
      )
    )
  )

  (symbol (lib_id "0805W8F2001T5E:0805W8F2001T5E") (at 228.6 44.45 0) (unit 1)
    (in_bom yes) (on_board yes) (dnp no)
    (uuid 9af727ab-3c7d-4fe1-aff6-0f77a9cd99fd)
    (property "Reference" "R11" (at 228.6 40.5511 0)
      (effects (font (size 1.27 1.27)))
    )
    (property "Value" "0805W8F2001T5E" (at 228.6 42.4721 0)
      (effects (font (size 1.27 1.27)))
    )
    (property "Footprint" "footprint:R0805" (at 228.6 54.61 0)
      (effects (font (size 1.27 1.27) italic) hide)
    )
    (property "Datasheet" "https://item.szlcsc.com/142685.html" (at 226.314 44.323 0)
      (effects (font (size 1.27 1.27)) (justify left) hide)
    )
    (property "LCSC" "C17604" (at 228.6 44.45 0)
      (effects (font (size 1.27 1.27)) hide)
    )
    (property "Resistance" "2kΩ" (at 228.6 44.45 0)
      (effects (font (size 1.27 1.27)) hide)
    )
    (pin "1" (uuid 3f03bd76-e57f-42e7-b8d0-d7a96b97ebdd))
    (pin "2" (uuid b047713f-2bfa-4a95-abd8-2f9e406bb519))
    (instances
      (project "Power_Submodule"
        (path "/feeeb8a6-ceec-4bf4-8911-c3ef47fca6cd"
          (reference "R11") (unit 1)
        )
      )
    )
  )

  (symbol (lib_id "MCP73831T-2ACI_OT:MCP73831T-2ACI_OT") (at 227.33 59.69 0) (unit 1)
    (in_bom yes) (on_board yes) (dnp no) (fields_autoplaced)
    (uuid aa2900a2-11b5-400a-85fc-f8ff6bbbba02)
    (property "Reference" "U5" (at 227.33 51.7271 0)
      (effects (font (size 1.27 1.27)))
    )
    (property "Value" "MCP73831T-2ACI_OT" (at 227.33 53.6481 0)
      (effects (font (size 1.27 1.27)))
    )
    (property "Footprint" "footprint:SOT-23-5_L3.0-W1.7-P0.95-LS2.8-BL" (at 227.33 69.85 0)
      (effects (font (size 1.27 1.27) italic) hide)
    )
    (property "Datasheet" "https://item.szlcsc.com/236104.html" (at 225.044 59.563 0)
      (effects (font (size 1.27 1.27)) (justify left) hide)
    )
    (property "LCSC" "C424093" (at 227.33 59.69 0)
      (effects (font (size 1.27 1.27)) hide)
    )
    (pin "1" (uuid 81d1bc5f-c023-4020-a828-e62dff67da4a))
    (pin "2" (uuid cedc5b83-334e-4386-8772-22251355dce2))
    (pin "3" (uuid d854c4da-23c1-4693-870e-d1533a02d929))
    (pin "4" (uuid a0318e68-4c57-4f65-a8f2-1121d32a8841))
    (pin "5" (uuid 1d4e7ced-1b03-4592-8991-cfe0eb098a27))
    (instances
      (project "Power_Submodule"
        (path "/feeeb8a6-ceec-4bf4-8911-c3ef47fca6cd"
          (reference "U5") (unit 1)
        )
      )
    )
  )

  (symbol (lib_id "power:GND") (at 29.21 57.15 0) (unit 1)
    (in_bom yes) (on_board yes) (dnp no) (fields_autoplaced)
    (uuid b293bf69-a7e0-4200-8b29-a80cc5c859ee)
    (property "Reference" "#PWR02" (at 29.21 63.5 0)
      (effects (font (size 1.27 1.27)) hide)
    )
    (property "Value" "GND" (at 29.21 61.2855 0)
      (effects (font (size 1.27 1.27)))
    )
    (property "Footprint" "" (at 29.21 57.15 0)
      (effects (font (size 1.27 1.27)) hide)
    )
    (property "Datasheet" "" (at 29.21 57.15 0)
      (effects (font (size 1.27 1.27)) hide)
    )
    (pin "1" (uuid 9df977dd-be07-468c-a05d-8324b7be2557))
    (instances
      (project "Full_Schematic"
        (path "/fc608198-e48a-4546-be1f-43c463c6be2c/39a4cd7e-f9f0-444e-885c-1ef0e01b006c"
          (reference "#PWR02") (unit 1)
        )
      )
      (project "Power_Submodule"
        (path "/feeeb8a6-ceec-4bf4-8911-c3ef47fca6cd"
          (reference "#PWR02") (unit 1)
        )
      )
    )
  )

  (symbol (lib_id "0805W8F4700T5E:0805W8F4700T5E") (at 240.03 38.1 180) (unit 1)
    (in_bom yes) (on_board yes) (dnp no) (fields_autoplaced)
    (uuid b4574c32-aae7-4f59-b7fb-9527fc44aac7)
    (property "Reference" "R10" (at 240.03 34.2011 0)
      (effects (font (size 1.27 1.27)))
    )
    (property "Value" "0805W8F4700T5E" (at 240.03 36.1221 0)
      (effects (font (size 1.27 1.27)))
    )
    (property "Footprint" "footprint:R0805" (at 240.03 27.94 0)
      (effects (font (size 1.27 1.27) italic) hide)
    )
    (property "Datasheet" "https://item.szlcsc.com/142685.html" (at 242.316 38.227 0)
      (effects (font (size 1.27 1.27)) (justify left) hide)
    )
    (property "LCSC" "C17710" (at 240.03 38.1 0)
      (effects (font (size 1.27 1.27)) hide)
    )
    (property "Resistance" "470Ω" (at 240.03 38.1 0)
      (effects (font (size 1.27 1.27)) hide)
    )
    (pin "1" (uuid eacd3a3e-4c6a-495c-8b5e-cebdcf981208))
    (pin "2" (uuid 4ab3b9b5-3cb5-4112-9cd3-309940716ce3))
    (instances
      (project "Power_Submodule"
        (path "/feeeb8a6-ceec-4bf4-8911-c3ef47fca6cd"
          (reference "R10") (unit 1)
        )
      )
    )
  )

  (symbol (lib_id "SS54:SS54_C22452") (at 67.31 121.92 90) (unit 1)
    (in_bom yes) (on_board yes) (dnp no) (fields_autoplaced)
    (uuid b49a9e0c-31e8-468e-99c0-fb6191318e38)
    (property "Reference" "U3" (at 69.977 121.6573 90)
      (effects (font (size 1.27 1.27)) (justify right))
    )
    (property "Value" "SS54_C22452" (at 69.977 123.5783 90)
      (effects (font (size 1.27 1.27)) (justify right))
    )
    (property "Footprint" "footprint:SS54" (at 77.47 121.92 0)
      (effects (font (size 1.27 1.27) italic) hide)
    )
    (property "Datasheet" "https://item.szlcsc.com/310096.html" (at 67.183 124.206 0)
      (effects (font (size 1.27 1.27)) (justify left) hide)
    )
    (property "LCSC" "C22452" (at 67.31 121.92 0)
      (effects (font (size 1.27 1.27)) hide)
    )
    (pin "1" (uuid 2ec9917a-bb33-4676-821a-ea8a736ec7dd))
    (pin "2" (uuid 3faa693f-1797-4962-959e-fe2cbcfe7588))
    (instances
      (project "Full_Schematic"
        (path "/fc608198-e48a-4546-be1f-43c463c6be2c/39a4cd7e-f9f0-444e-885c-1ef0e01b006c"
          (reference "U3") (unit 1)
        )
      )
      (project "Power_Submodule"
        (path "/feeeb8a6-ceec-4bf4-8911-c3ef47fca6cd"
          (reference "U3") (unit 1)
        )
      )
    )
  )

  (symbol (lib_id "power:GND") (at 167.005 143.51 0) (unit 1)
    (in_bom yes) (on_board yes) (dnp no) (fields_autoplaced)
    (uuid bd4ea3f4-2bdb-4963-850d-247c89bb73af)
    (property "Reference" "#PWR?" (at 167.005 149.86 0)
      (effects (font (size 1.27 1.27)) hide)
    )
    (property "Value" "GND" (at 167.005 147.6455 0)
      (effects (font (size 1.27 1.27)))
    )
    (property "Footprint" "" (at 167.005 143.51 0)
      (effects (font (size 1.27 1.27)) hide)
    )
    (property "Datasheet" "" (at 167.005 143.51 0)
      (effects (font (size 1.27 1.27)) hide)
    )
    (pin "1" (uuid 46a81710-be93-48e5-a98f-46e1396cc3f8))
    (instances
      (project "Power submodule"
        (path "/6fc317aa-5f90-47b1-bdc0-610a1a985ddf"
          (reference "#PWR?") (unit 1)
        )
      )
      (project "Full_Schematic"
        (path "/fc608198-e48a-4546-be1f-43c463c6be2c/39a4cd7e-f9f0-444e-885c-1ef0e01b006c"
          (reference "#PWR013") (unit 1)
        )
      )
      (project "Power_Submodule"
        (path "/feeeb8a6-ceec-4bf4-8911-c3ef47fca6cd"
          (reference "#PWR012") (unit 1)
        )
      )
    )
  )

  (symbol (lib_id "CL21A476MQYNNNE:CL21A476MQYNNNE") (at 257.81 66.04 270) (unit 1)
    (in_bom yes) (on_board yes) (dnp no) (fields_autoplaced)
    (uuid c2ac9b66-9088-46c7-a144-62d10a7e740b)
    (property "Reference" "C8" (at 260.477 65.3963 90)
      (effects (font (size 1.27 1.27)) (justify left))
    )
    (property "Value" "CL21A476MQYNNNE" (at 260.477 67.3173 90)
      (effects (font (size 1.27 1.27)) (justify left))
    )
    (property "Footprint" "footprint:C0805" (at 247.65 66.04 0)
      (effects (font (size 1.27 1.27) italic) hide)
    )
    (property "Datasheet" "https://item.szlcsc.com/373011.html" (at 257.937 63.754 0)
      (effects (font (size 1.27 1.27)) (justify left) hide)
    )
    (property "LCSC" "C16780" (at 257.81 66.04 0)
      (effects (font (size 1.27 1.27)) hide)
    )
    (property "Capacitance" "47uF" (at 257.81 66.04 0)
      (effects (font (size 1.27 1.27)) hide)
    )
    (pin "1" (uuid cceae322-a3e4-4104-9bae-1d07b7c78dda))
    (pin "2" (uuid db9312c2-281f-4a75-898f-2add001a6c03))
    (instances
      (project "Power_Submodule"
        (path "/feeeb8a6-ceec-4bf4-8911-c3ef47fca6cd"
          (reference "C8") (unit 1)
        )
      )
    )
  )

  (symbol (lib_name "MICROXNJ_1") (lib_id "MICROXNJ:MICROXNJ") (at 33.02 43.18 180) (unit 1)
    (in_bom yes) (on_board yes) (dnp no) (fields_autoplaced)
    (uuid c96d9c8e-2305-4118-a26e-95afe3ff406e)
    (property "Reference" "USB1" (at 24.7651 42.5363 0)
      (effects (font (size 1.27 1.27)) (justify left))
    )
    (property "Value" "MICROXNJ" (at 24.7651 44.4573 0)
      (effects (font (size 1.27 1.27)) (justify left))
    )
    (property "Footprint" "footprint:MICROXNJ" (at 33.02 33.02 0)
      (effects (font (size 1.27 1.27) italic) hide)
    )
    (property "Datasheet" "https://item.szlcsc.com/392534.html" (at 35.306 43.307 0)
      (effects (font (size 1.27 1.27)) (justify left) hide)
    )
    (property "LCSC" "C404969" (at 33.02 43.18 0)
      (effects (font (size 1.27 1.27)) hide)
    )
    (pin "1" (uuid 3670efbc-8ceb-40ef-9eb7-715274aeebba))
    (pin "2" (uuid ec09b61c-6620-4670-b52d-bb574ebde820))
    (pin "3" (uuid 99a2124d-3ec9-496a-b68e-d9acf4d385c8))
    (pin "4" (uuid 44a2fa0d-ef5e-4d55-a09e-436a0d89dcc5))
    (pin "5" (uuid 4bce9c12-d38c-4faa-a272-c4dfbc76b42d))
    (pin "6" (uuid 71666f07-bc5c-4420-b725-afcc88f76671))
    (pin "7" (uuid 33fcdb83-aeba-496c-9028-5bbcf3c1f67a))
    (pin "8" (uuid 0b09e6ce-321e-480a-86fe-5c31d3f908f5))
    (pin "9" (uuid 98ac9b9e-34c5-4085-a3b5-6ec0e61df492))
    (instances
      (project "Full_Schematic"
        (path "/fc608198-e48a-4546-be1f-43c463c6be2c/39a4cd7e-f9f0-444e-885c-1ef0e01b006c"
          (reference "USB1") (unit 1)
        )
      )
      (project "Power_Submodule"
        (path "/feeeb8a6-ceec-4bf4-8911-c3ef47fca6cd"
          (reference "USB1") (unit 1)
        )
      )
    )
  )

  (symbol (lib_id "Device:R_Small") (at 74.93 132.08 90) (unit 1)
    (in_bom yes) (on_board yes) (dnp no)
    (uuid cbfd9dff-a087-4822-bb45-947f0282d0dd)
    (property "Reference" "R?" (at 74.93 128.3335 90)
      (effects (font (size 1.27 1.27)))
    )
    (property "Value" "0R" (at 74.93 130.2545 90)
      (effects (font (size 1.27 1.27)))
    )
    (property "Footprint" "footprint:0805W8F0000T5E" (at 74.93 132.08 0)
      (effects (font (size 1.27 1.27)) hide)
    )
    (property "Datasheet" "~" (at 74.93 132.08 0)
      (effects (font (size 1.27 1.27)) hide)
    )
    (property "LCSC" "C17477" (at 74.93 132.08 90)
      (effects (font (size 1.27 1.27)) hide)
    )
    (property "Resistance " "0Ω" (at 74.93 132.08 90)
      (effects (font (size 1.27 1.27)) hide)
    )
    (pin "1" (uuid 0147ec1d-4f76-410c-a59d-6e01c222a94d))
    (pin "2" (uuid e28603ca-cba0-4564-a389-f69fd31ee189))
    (instances
      (project "Power submodule"
        (path "/6fc317aa-5f90-47b1-bdc0-610a1a985ddf"
          (reference "R?") (unit 1)
        )
      )
      (project "Full_Schematic"
        (path "/fc608198-e48a-4546-be1f-43c463c6be2c/39a4cd7e-f9f0-444e-885c-1ef0e01b006c"
          (reference "R2") (unit 1)
        )
      )
      (project "Power_Submodule"
        (path "/feeeb8a6-ceec-4bf4-8911-c3ef47fca6cd"
          (reference "R2") (unit 1)
        )
      )
    )
  )

  (symbol (lib_id "power:GND") (at 96.52 71.12 0) (unit 1)
    (in_bom yes) (on_board yes) (dnp no) (fields_autoplaced)
    (uuid cdd42f0a-9e1c-4c5f-af4e-619896671f90)
    (property "Reference" "#PWR014" (at 96.52 77.47 0)
      (effects (font (size 1.27 1.27)) hide)
    )
    (property "Value" "GND" (at 96.52 75.2555 0)
      (effects (font (size 1.27 1.27)))
    )
    (property "Footprint" "" (at 96.52 71.12 0)
      (effects (font (size 1.27 1.27)) hide)
    )
    (property "Datasheet" "" (at 96.52 71.12 0)
      (effects (font (size 1.27 1.27)) hide)
    )
    (pin "1" (uuid 5bb78832-a26a-4b7d-b251-7a84e3c07807))
    (instances
      (project "Full_Schematic"
        (path "/fc608198-e48a-4546-be1f-43c463c6be2c/39a4cd7e-f9f0-444e-885c-1ef0e01b006c"
          (reference "#PWR014") (unit 1)
        )
      )
      (project "Power_Submodule"
        (path "/feeeb8a6-ceec-4bf4-8911-c3ef47fca6cd"
          (reference "#PWR017") (unit 1)
        )
      )
    )
  )

  (symbol (lib_id "power:GND") (at 210.82 59.69 270) (unit 1)
    (in_bom yes) (on_board yes) (dnp no) (fields_autoplaced)
    (uuid ceabc34a-88b1-498d-b0d3-ae6790a01cbf)
    (property "Reference" "#PWR014" (at 204.47 59.69 0)
      (effects (font (size 1.27 1.27)) hide)
    )
    (property "Value" "GND" (at 207.6451 60.0068 90)
      (effects (font (size 1.27 1.27)) (justify right))
    )
    (property "Footprint" "" (at 210.82 59.69 0)
      (effects (font (size 1.27 1.27)) hide)
    )
    (property "Datasheet" "" (at 210.82 59.69 0)
      (effects (font (size 1.27 1.27)) hide)
    )
    (pin "1" (uuid 0af3cd9d-b312-4883-bdb3-1241648ea311))
    (instances
      (project "Full_Schematic"
        (path "/fc608198-e48a-4546-be1f-43c463c6be2c/39a4cd7e-f9f0-444e-885c-1ef0e01b006c"
          (reference "#PWR014") (unit 1)
        )
      )
      (project "Power_Submodule"
        (path "/feeeb8a6-ceec-4bf4-8911-c3ef47fca6cd"
          (reference "#PWR011") (unit 1)
        )
      )
    )
  )

  (symbol (lib_id "power:GND") (at 130.175 142.24 0) (unit 1)
    (in_bom yes) (on_board yes) (dnp no) (fields_autoplaced)
    (uuid d3b9aa62-a84c-4ee7-9e25-6dcab92f721b)
    (property "Reference" "#PWR?" (at 130.175 148.59 0)
      (effects (font (size 1.27 1.27)) hide)
    )
    (property "Value" "GND" (at 130.175 146.3755 0)
      (effects (font (size 1.27 1.27)))
    )
    (property "Footprint" "" (at 130.175 142.24 0)
      (effects (font (size 1.27 1.27)) hide)
    )
    (property "Datasheet" "" (at 130.175 142.24 0)
      (effects (font (size 1.27 1.27)) hide)
    )
    (pin "1" (uuid d605f2d3-f544-465d-9d0e-eb918777a473))
    (instances
      (project "Power submodule"
        (path "/6fc317aa-5f90-47b1-bdc0-610a1a985ddf"
          (reference "#PWR?") (unit 1)
        )
      )
      (project "Full_Schematic"
        (path "/fc608198-e48a-4546-be1f-43c463c6be2c/39a4cd7e-f9f0-444e-885c-1ef0e01b006c"
          (reference "#PWR010") (unit 1)
        )
      )
      (project "Power_Submodule"
        (path "/feeeb8a6-ceec-4bf4-8911-c3ef47fca6cd"
          (reference "#PWR09") (unit 1)
        )
      )
    )
  )

  (symbol (lib_id "AO3401A:AO3401A") (at 48.26 129.54 270) (unit 1)
    (in_bom yes) (on_board yes) (dnp no)
    (uuid e09355b3-e053-4304-a2fd-f5a916a7383d)
    (property "Reference" "T?" (at 48.26 135.7837 90)
      (effects (font (size 1.27 1.27)))
    )
    (property "Value" "AO3401A" (at 48.26 137.7047 90)
      (effects (font (size 1.27 1.27)))
    )
    (property "Footprint" "footprint:AO3401A" (at 49.53 140.97 0)
      (effects (font (size 1.27 1.27)) (justify bottom) hide)
    )
    (property "Datasheet" "" (at 48.26 129.54 0)
      (effects (font (size 1.27 1.27)) hide)
    )
    (property "LCSC" "C15127" (at 54.61 125.73 0)
      (effects (font (size 1.27 1.27)) (justify bottom) hide)
    )
    (pin "1" (uuid baf96758-5861-4830-8441-affcaa9145de))
    (pin "2" (uuid bc6b3e3b-5089-419a-a35a-56180572addd))
    (pin "3" (uuid f6c50bac-b435-4557-9ef4-5993c16d1056))
    (instances
      (project "Power submodule"
        (path "/6fc317aa-5f90-47b1-bdc0-610a1a985ddf"
          (reference "T?") (unit 1)
        )
      )
      (project "Design"
        (path "/bd7d38d5-6815-4662-867e-8a723778d927"
          (reference "T?") (unit 1)
        )
      )
      (project "Full_Schematic"
        (path "/fc608198-e48a-4546-be1f-43c463c6be2c/39a4cd7e-f9f0-444e-885c-1ef0e01b006c"
          (reference "T1") (unit 1)
        )
      )
      (project "Power_Submodule"
        (path "/feeeb8a6-ceec-4bf4-8911-c3ef47fca6cd"
          (reference "T1") (unit 1)
        )
      )
    )
  )

  (symbol (lib_id "Device:R_Small") (at 245.11 62.23 90) (unit 1)
    (in_bom yes) (on_board yes) (dnp no) (fields_autoplaced)
    (uuid e62edb8f-0bfc-4f14-b3e2-758a6b59d9d1)
    (property "Reference" "R?" (at 245.11 58.4835 90)
      (effects (font (size 1.27 1.27)))
    )
    (property "Value" "0R" (at 245.11 60.4045 90)
      (effects (font (size 1.27 1.27)))
    )
    (property "Footprint" "footprint:0805W8F0000T5E" (at 245.11 62.23 0)
      (effects (font (size 1.27 1.27)) hide)
    )
    (property "Datasheet" "~" (at 245.11 62.23 0)
      (effects (font (size 1.27 1.27)) hide)
    )
    (property "LCSC" "C17477" (at 245.11 62.23 90)
      (effects (font (size 1.27 1.27)) hide)
    )
    (property "Resistance" "0Ω" (at 245.11 62.23 90)
      (effects (font (size 1.27 1.27)) hide)
    )
    (pin "1" (uuid 232a9669-990a-4737-b909-dd8e90220f78))
    (pin "2" (uuid 8588ce7f-76dd-4f9f-9e78-c59043a24915))
    (instances
      (project "Power submodule"
        (path "/6fc317aa-5f90-47b1-bdc0-610a1a985ddf"
          (reference "R?") (unit 1)
        )
      )
      (project "Full_Schematic"
        (path "/fc608198-e48a-4546-be1f-43c463c6be2c/39a4cd7e-f9f0-444e-885c-1ef0e01b006c"
          (reference "R9") (unit 1)
        )
      )
      (project "Power_Submodule"
        (path "/feeeb8a6-ceec-4bf4-8911-c3ef47fca6cd"
          (reference "R1") (unit 1)
        )
      )
    )
  )

  (symbol (lib_id "AO3401A:AO3401A") (at 133.35 35.56 270) (mirror x) (unit 1)
    (in_bom yes) (on_board yes) (dnp no)
    (uuid ee54f217-ea32-4096-8fbf-9abb6e7be243)
    (property "Reference" "T?" (at 133.35 29.3163 90)
      (effects (font (size 1.27 1.27)))
    )
    (property "Value" "AO3401A" (at 133.35 27.3953 90)
      (effects (font (size 1.27 1.27)))
    )
    (property "Footprint" "footprint:AO3401A" (at 134.62 24.13 0)
      (effects (font (size 1.27 1.27)) (justify bottom) hide)
    )
    (property "Datasheet" "" (at 133.35 35.56 0)
      (effects (font (size 1.27 1.27)) hide)
    )
    (property "LCSC" "C15127" (at 139.7 39.37 0)
      (effects (font (size 1.27 1.27)) (justify bottom) hide)
    )
    (pin "1" (uuid f7a74ead-0add-4b01-8974-a108679a5d59))
    (pin "2" (uuid 58c2b7be-20c8-4aca-bcf2-8cca8133c160))
    (pin "3" (uuid 5f7fad7e-a28a-4405-b720-1b55d3bab907))
    (instances
      (project "Power submodule"
        (path "/6fc317aa-5f90-47b1-bdc0-610a1a985ddf"
          (reference "T?") (unit 1)
        )
      )
      (project "Design"
        (path "/bd7d38d5-6815-4662-867e-8a723778d927"
          (reference "T?") (unit 1)
        )
      )
      (project "Full_Schematic"
        (path "/fc608198-e48a-4546-be1f-43c463c6be2c/39a4cd7e-f9f0-444e-885c-1ef0e01b006c"
          (reference "T1") (unit 1)
        )
      )
      (project "Power_Submodule"
        (path "/feeeb8a6-ceec-4bf4-8911-c3ef47fca6cd"
          (reference "T2") (unit 1)
        )
      )
    )
  )

  (symbol (lib_id "Device:LED") (at 255.27 53.34 270) (unit 1)
    (in_bom yes) (on_board yes) (dnp no) (fields_autoplaced)
    (uuid f114bb3a-2163-426a-98ce-240541798ff8)
    (property "Reference" "D?" (at 257.302 51.1088 90)
      (effects (font (size 1.27 1.27)) (justify left))
    )
    (property "Value" "Red" (at 257.302 53.0298 90)
      (effects (font (size 1.27 1.27)) (justify left))
    )
    (property "Footprint" "footprint:NCD0805R1" (at 255.27 53.34 0)
      (effects (font (size 1.27 1.27)) hide)
    )
    (property "Datasheet" "~" (at 255.27 53.34 0)
      (effects (font (size 1.27 1.27)) hide)
    )
    (pin "1" (uuid 5e2f224c-eb5e-4f76-9352-4a1d338870f9))
    (pin "2" (uuid 5c49bca4-0f8f-40fc-b6e1-45c6e3a2d97c))
    (instances
      (project "Power submodule"
        (path "/6fc317aa-5f90-47b1-bdc0-610a1a985ddf"
          (reference "D?") (unit 1)
        )
      )
      (project "Full_Schematic"
        (path "/fc608198-e48a-4546-be1f-43c463c6be2c/39a4cd7e-f9f0-444e-885c-1ef0e01b006c"
          (reference "D1") (unit 1)
        )
      )
      (project "Power_Submodule"
        (path "/feeeb8a6-ceec-4bf4-8911-c3ef47fca6cd"
          (reference "D1") (unit 1)
        )
      )
    )
  )

  (symbol (lib_id "Device:C") (at 167.005 133.35 0) (unit 1)
    (in_bom yes) (on_board yes) (dnp no)
    (uuid f40fbf8e-366c-4267-a6fb-9ce767866ad1)
    (property "Reference" "C?" (at 169.926 132.7063 0)
      (effects (font (size 1.27 1.27)) (justify left))
    )
    (property "Value" "10u" (at 169.926 134.6273 0)
      (effects (font (size 1.27 1.27)) (justify left))
    )
    (property "Footprint" "footprint:C0805" (at 167.9702 137.16 0)
      (effects (font (size 1.27 1.27)) hide)
    )
    (property "Datasheet" "~" (at 167.005 133.35 0)
      (effects (font (size 1.27 1.27)) hide)
    )
    (property "LCSC" "C15850" (at 167.005 133.35 0)
      (effects (font (size 1.27 1.27)) hide)
    )
    (property "Capacitance" "10u" (at 167.005 133.35 0)
      (effects (font (size 1.27 1.27)) hide)
    )
    (pin "1" (uuid db348971-747d-4851-9dcb-0eea6765ea72))
    (pin "2" (uuid cbf03e03-e405-444f-87f0-a76400bae0b7))
    (instances
      (project "Power submodule"
        (path "/6fc317aa-5f90-47b1-bdc0-610a1a985ddf"
          (reference "C?") (unit 1)
        )
      )
      (project "Full_Schematic"
        (path "/fc608198-e48a-4546-be1f-43c463c6be2c/39a4cd7e-f9f0-444e-885c-1ef0e01b006c"
          (reference "C6") (unit 1)
        )
      )
      (project "Power_Submodule"
        (path "/feeeb8a6-ceec-4bf4-8911-c3ef47fca6cd"
          (reference "C10") (unit 1)
        )
      )
    )
  )

  (symbol (lib_id "power:GND") (at 154.305 140.97 0) (unit 1)
    (in_bom yes) (on_board yes) (dnp no) (fields_autoplaced)
    (uuid fb2b95f6-daa8-46f2-8f56-51d4ad1c4de8)
    (property "Reference" "#PWR?" (at 154.305 147.32 0)
      (effects (font (size 1.27 1.27)) hide)
    )
    (property "Value" "GND" (at 154.305 145.1055 0)
      (effects (font (size 1.27 1.27)))
    )
    (property "Footprint" "" (at 154.305 140.97 0)
      (effects (font (size 1.27 1.27)) hide)
    )
    (property "Datasheet" "" (at 154.305 140.97 0)
      (effects (font (size 1.27 1.27)) hide)
    )
    (pin "1" (uuid a6ca6cc9-f06c-4a29-9530-4f7e17ec2a6e))
    (instances
      (project "Power submodule"
        (path "/6fc317aa-5f90-47b1-bdc0-610a1a985ddf"
          (reference "#PWR?") (unit 1)
        )
      )
      (project "Full_Schematic"
        (path "/fc608198-e48a-4546-be1f-43c463c6be2c/39a4cd7e-f9f0-444e-885c-1ef0e01b006c"
          (reference "#PWR013") (unit 1)
        )
      )
      (project "Power_Submodule"
        (path "/feeeb8a6-ceec-4bf4-8911-c3ef47fca6cd"
          (reference "#PWR014") (unit 1)
        )
      )
    )
  )

  (sheet_instances
    (path "/" (page "1"))
  )
)
