%TF.GenerationSoftware,KiCad,Pcbnew,(7.0.0)*%
%TF.CreationDate,2023-03-21T10:37:00+02:00*%
%TF.ProjectId,Full_Schematic,46756c6c-5f53-4636-9865-6d617469632e,rev?*%
%TF.SameCoordinates,Original*%
%TF.FileFunction,Profile,NP*%
%FSLAX46Y46*%
G04 Gerber Fmt 4.6, Leading zero omitted, Abs format (unit mm)*
G04 Created by KiCad (PCBNEW (7.0.0)) date 2023-03-21 10:37:00*
%MOMM*%
%LPD*%
G01*
G04 APERTURE LIST*
%TA.AperFunction,Profile*%
%ADD10C,0.100000*%
%TD*%
G04 APERTURE END LIST*
D10*
X151000000Y-150000000D02*
X249000000Y-150000000D01*
X150000000Y-51000000D02*
X150000000Y-149000000D01*
X250000000Y-51000000D02*
G75*
G03*
X249000000Y-50000000I-1000000J0D01*
G01*
X157000000Y-54000000D02*
G75*
G03*
X157000000Y-54000000I-2000000J0D01*
G01*
X249000000Y-150000000D02*
G75*
G03*
X250000000Y-149000000I0J1000000D01*
G01*
X150000000Y-149000000D02*
G75*
G03*
X151000000Y-150000000I1000000J0D01*
G01*
X250000000Y-149000000D02*
X250000000Y-51000000D01*
X151000000Y-50000000D02*
G75*
G03*
X150000000Y-51000000I0J-1000000D01*
G01*
X247000000Y-54000000D02*
G75*
G03*
X247000000Y-54000000I-2000000J0D01*
G01*
X249000000Y-50000000D02*
X151000000Y-50000000D01*
M02*
